%YAML 1.1
%TAG !u! tag:unity3d.com,2011:
--- !u!114 &6218049115015404527
MonoBehaviour:
  m_ObjectHideFlags: 0
  m_CorrespondingSourceObject: {fileID: 0}
  m_PrefabInstance: {fileID: 0}
  m_PrefabAsset: {fileID: 0}
  m_GameObject: {fileID: 64640270367122805}
  m_Enabled: 1
  m_EditorHideFlags: 0
  m_Script: {fileID: 11500000, guid: e7c2aa17d55057f48a7af5882e4c8980, type: 3}
  m_Name: 
  m_EditorClassIdentifier: 
  impactRadiius: 5
  impactLayerMask:
    serializedVersion: 2
    m_Bits: 512
--- !u!1001 &63406742746342737
PrefabInstance:
  m_ObjectHideFlags: 0
  serializedVersion: 2
  m_Modification:
    m_TransformParent: {fileID: 0}
    m_Modifications:
    - target: {fileID: 1374267004960804, guid: ed8c5fb58e698c5418529f8aee4e4848, type: 3}
      propertyPath: m_Name
      value: vfx_Projectile_BubbleBlue_Mobile Variant
      objectReference: {fileID: 0}
    - target: {fileID: 4209758916121126, guid: ed8c5fb58e698c5418529f8aee4e4848, type: 3}
      propertyPath: m_LocalPosition.x
      value: 5.65
      objectReference: {fileID: 0}
    - target: {fileID: 4209758916121126, guid: ed8c5fb58e698c5418529f8aee4e4848, type: 3}
      propertyPath: m_LocalPosition.y
      value: 2
      objectReference: {fileID: 0}
    - target: {fileID: 4209758916121126, guid: ed8c5fb58e698c5418529f8aee4e4848, type: 3}
      propertyPath: m_LocalPosition.z
      value: -0.05
      objectReference: {fileID: 0}
    - target: {fileID: 4209758916121126, guid: ed8c5fb58e698c5418529f8aee4e4848, type: 3}
      propertyPath: m_LocalRotation.x
      value: 0
      objectReference: {fileID: 0}
    - target: {fileID: 4209758916121126, guid: ed8c5fb58e698c5418529f8aee4e4848, type: 3}
      propertyPath: m_LocalRotation.y
      value: 0
      objectReference: {fileID: 0}
    - target: {fileID: 4209758916121126, guid: ed8c5fb58e698c5418529f8aee4e4848, type: 3}
      propertyPath: m_LocalRotation.z
      value: 0
      objectReference: {fileID: 0}
    - target: {fileID: 4209758916121126, guid: ed8c5fb58e698c5418529f8aee4e4848, type: 3}
      propertyPath: m_LocalRotation.w
      value: 1
      objectReference: {fileID: 0}
    - target: {fileID: 4209758916121126, guid: ed8c5fb58e698c5418529f8aee4e4848, type: 3}
      propertyPath: m_RootOrder
      value: 0
      objectReference: {fileID: 0}
    - target: {fileID: 4209758916121126, guid: ed8c5fb58e698c5418529f8aee4e4848, type: 3}
      propertyPath: m_LocalEulerAnglesHint.x
      value: 0
      objectReference: {fileID: 0}
    - target: {fileID: 4209758916121126, guid: ed8c5fb58e698c5418529f8aee4e4848, type: 3}
      propertyPath: m_LocalEulerAnglesHint.y
      value: 0
      objectReference: {fileID: 0}
    - target: {fileID: 4209758916121126, guid: ed8c5fb58e698c5418529f8aee4e4848, type: 3}
      propertyPath: m_LocalEulerAnglesHint.z
      value: 0
      objectReference: {fileID: 0}
    - target: {fileID: 198625322165679848, guid: ed8c5fb58e698c5418529f8aee4e4848,
        type: 3}
      propertyPath: LightsModule.light
      value: 
      objectReference: {fileID: 0}
    - target: {fileID: 198666345037842568, guid: ed8c5fb58e698c5418529f8aee4e4848,
        type: 3}
      propertyPath: LightsModule.light
      value: 
      objectReference: {fileID: 0}
    m_RemovedComponents: []
  m_SourcePrefab: {fileID: 100100000, guid: ed8c5fb58e698c5418529f8aee4e4848, type: 3}
--- !u!1 &64640270367122805 stripped
GameObject:
  m_CorrespondingSourceObject: {fileID: 1374267004960804, guid: ed8c5fb58e698c5418529f8aee4e4848,
    type: 3}
  m_PrefabInstance: {fileID: 63406742746342737}
  m_PrefabAsset: {fileID: 0}
