%YAML 1.1
%TAG !u! tag:unity3d.com,2011:
--- !u!114 &3682051892156464502
MonoBehaviour:
  m_ObjectHideFlags: 0
  m_CorrespondingSourceObject: {fileID: 0}
  m_PrefabInstance: {fileID: 0}
  m_PrefabAsset: {fileID: 0}
  m_GameObject: {fileID: 9057736544460950533}
  m_Enabled: 1
  m_EditorHideFlags: 0
  m_Script: {fileID: 11500000, guid: e7c2aa17d55057f48a7af5882e4c8980, type: 3}
  m_Name: 
  m_EditorClassIdentifier: 
  impactRadiius: 5
  impactLayerMask:
    serializedVersion: 2
    m_Bits: 512
--- !u!1001 &9058495204737512439
PrefabInstance:
  m_ObjectHideFlags: 0
  serializedVersion: 2
  m_Modification:
    m_TransformParent: {fileID: 0}
    m_Modifications:
    - target: {fileID: 1607489160101874, guid: b7ba6c97a4ca1054192d87011b2d494d, type: 3}
      propertyPath: m_Name
      value: vfx_Projectile_SpinBlue_Mobile Variant
      objectReference: {fileID: 0}
    - target: {fileID: 4730159595522024, guid: b7ba6c97a4ca1054192d87011b2d494d, type: 3}
      propertyPath: m_LocalPosition.x
      value: 5.65
      objectReference: {fileID: 0}
    - target: {fileID: 4730159595522024, guid: b7ba6c97a4ca1054192d87011b2d494d, type: 3}
      propertyPath: m_LocalPosition.y
      value: 2
      objectReference: {fileID: 0}
    - target: {fileID: 4730159595522024, guid: b7ba6c97a4ca1054192d87011b2d494d, type: 3}
      propertyPath: m_LocalPosition.z
      value: -0.05
      objectReference: {fileID: 0}
    - target: {fileID: 4730159595522024, guid: b7ba6c97a4ca1054192d87011b2d494d, type: 3}
      propertyPath: m_LocalRotation.x
      value: 0
      objectReference: {fileID: 0}
    - target: {fileID: 4730159595522024, guid: b7ba6c97a4ca1054192d87011b2d494d, type: 3}
      propertyPath: m_LocalRotation.y
      value: 0
      objectReference: {fileID: 0}
    - target: {fileID: 4730159595522024, guid: b7ba6c97a4ca1054192d87011b2d494d, type: 3}
      propertyPath: m_LocalRotation.z
      value: 0
      objectReference: {fileID: 0}
    - target: {fileID: 4730159595522024, guid: b7ba6c97a4ca1054192d87011b2d494d, type: 3}
      propertyPath: m_LocalRotation.w
      value: 1
      objectReference: {fileID: 0}
    - target: {fileID: 4730159595522024, guid: b7ba6c97a4ca1054192d87011b2d494d, type: 3}
      propertyPath: m_RootOrder
      value: 0
      objectReference: {fileID: 0}
    - target: {fileID: 4730159595522024, guid: b7ba6c97a4ca1054192d87011b2d494d, type: 3}
      propertyPath: m_LocalEulerAnglesHint.x
      value: 0
      objectReference: {fileID: 0}
    - target: {fileID: 4730159595522024, guid: b7ba6c97a4ca1054192d87011b2d494d, type: 3}
      propertyPath: m_LocalEulerAnglesHint.y
      value: 0
      objectReference: {fileID: 0}
    - target: {fileID: 4730159595522024, guid: b7ba6c97a4ca1054192d87011b2d494d, type: 3}
      propertyPath: m_LocalEulerAnglesHint.z
      value: 0
      objectReference: {fileID: 0}
    m_RemovedComponents: []
  m_SourcePrefab: {fileID: 100100000, guid: b7ba6c97a4ca1054192d87011b2d494d, type: 3}
--- !u!1 &9057736544460950533 stripped
GameObject:
  m_CorrespondingSourceObject: {fileID: 1607489160101874, guid: b7ba6c97a4ca1054192d87011b2d494d,
    type: 3}
  m_PrefabInstance: {fileID: 9058495204737512439}
  m_PrefabAsset: {fileID: 0}
