%YAML 1.1
%TAG !u! tag:unity3d.com,2011:
--- !u!1 &3787998933453686439
GameObject:
  m_ObjectHideFlags: 0
  m_CorrespondingSourceObject: {fileID: 0}
  m_PrefabInstance: {fileID: 0}
  m_PrefabAsset: {fileID: 0}
  serializedVersion: 6
  m_Component:
  - component: {fileID: 1197368604814579383}
  - component: {fileID: 5396009596879353894}
  m_Layer: 0
  m_Name: Destroyed Cannon Pool
  m_TagString: Untagged
  m_Icon: {fileID: 0}
  m_NavMeshLayer: 0
  m_StaticEditorFlags: 0
  m_IsActive: 1
--- !u!4 &1197368604814579383
Transform:
  m_ObjectHideFlags: 0
  m_CorrespondingSourceObject: {fileID: 0}
  m_PrefabInstance: {fileID: 0}
  m_PrefabAsset: {fileID: 0}
  m_GameObject: {fileID: 3787998933453686439}
  m_LocalRotation: {x: 0, y: 0, z: 0, w: 1}
  m_LocalPosition: {x: 0, y: 0, z: 0}
  m_LocalScale: {x: 1, y: 1, z: 1}
  m_Children: []
  m_Father: {fileID: 0}
  m_RootOrder: 0
  m_LocalEulerAnglesHint: {x: 0, y: 0, z: 0}
--- !u!114 &5396009596879353894
MonoBehaviour:
  m_ObjectHideFlags: 0
  m_CorrespondingSourceObject: {fileID: 0}
  m_PrefabInstance: {fileID: 0}
  m_PrefabAsset: {fileID: 0}
  m_GameObject: {fileID: 3787998933453686439}
  m_Enabled: 1
  m_EditorHideFlags: 0
  m_Script: {fileID: 11500000, guid: 2442016f8486197449f04daf3f9ca389, type: 3}
  m_Name: 
  m_EditorClassIdentifier: 
  Template:
  - {fileID: 4603897365914705740, guid: 9ec40777c0f26294f963873ad3454c1c, type: 3}
  PoolName: Destroyed Cannon
  ObjectList: []
  AutoResize: 0
  PoolSize: 30
  InstantiateOnAwake: 1
  Shared: 0
