%YAML 1.1
%TAG !u! tag:unity3d.com,2011:
--- !u!1001 &2028122117176104670
PrefabInstance:
  m_ObjectHideFlags: 0
  serializedVersion: 2
  m_Modification:
    m_TransformParent: {fileID: 0}
    m_Modifications:
    - target: {fileID: 5594325027634588655, guid: 1508f0e71af551b4fb7c043eee1e1b5a,
        type: 3}
      propertyPath: m_Name
      value: FloatingTextScaleUp
      objectReference: {fileID: 0}
    - target: {fileID: 5594325027634588640, guid: 1508f0e71af551b4fb7c043eee1e1b5a,
        type: 3}
      propertyPath: m_LocalPosition.x
      value: 0
      objectReference: {fileID: 0}
    - target: {fileID: 5594325027634588640, guid: 1508f0e71af551b4fb7c043eee1e1b5a,
        type: 3}
      propertyPath: m_LocalPosition.y
      value: 0
      objectReference: {fileID: 0}
    - target: {fileID: 5594325027634588640, guid: 1508f0e71af551b4fb7c043eee1e1b5a,
        type: 3}
      propertyPath: m_LocalPosition.z
      value: 0
      objectReference: {fileID: 0}
    - target: {fileID: 5594325027634588640, guid: 1508f0e71af551b4fb7c043eee1e1b5a,
        type: 3}
      propertyPath: m_LocalRotation.x
      value: 0
      objectReference: {fileID: 0}
    - target: {fileID: 5594325027634588640, guid: 1508f0e71af551b4fb7c043eee1e1b5a,
        type: 3}
      propertyPath: m_LocalRotation.y
      value: 1
      objectReference: {fileID: 0}
    - target: {fileID: 5594325027634588640, guid: 1508f0e71af551b4fb7c043eee1e1b5a,
        type: 3}
      propertyPath: m_LocalRotation.z
      value: 0
      objectReference: {fileID: 0}
    - target: {fileID: 5594325027634588640, guid: 1508f0e71af551b4fb7c043eee1e1b5a,
        type: 3}
      propertyPath: m_LocalRotation.w
      value: 0
      objectReference: {fileID: 0}
    - target: {fileID: 5594325027634588640, guid: 1508f0e71af551b4fb7c043eee1e1b5a,
        type: 3}
      propertyPath: m_RootOrder
      value: 0
      objectReference: {fileID: 0}
    - target: {fileID: 5594325027634588640, guid: 1508f0e71af551b4fb7c043eee1e1b5a,
        type: 3}
      propertyPath: m_LocalEulerAnglesHint.x
      value: 0
      objectReference: {fileID: 0}
    - target: {fileID: 5594325027634588640, guid: 1508f0e71af551b4fb7c043eee1e1b5a,
        type: 3}
      propertyPath: m_LocalEulerAnglesHint.y
      value: 180
      objectReference: {fileID: 0}
    - target: {fileID: 5594325027634588640, guid: 1508f0e71af551b4fb7c043eee1e1b5a,
        type: 3}
      propertyPath: m_LocalEulerAnglesHint.z
      value: 0
      objectReference: {fileID: 0}
    - target: {fileID: 5594325027634588654, guid: 1508f0e71af551b4fb7c043eee1e1b5a,
        type: 3}
      propertyPath: m_Color.rgba
      value: 4282533526
      objectReference: {fileID: 0}
    m_RemovedComponents: []
  m_SourcePrefab: {fileID: 100100000, guid: 1508f0e71af551b4fb7c043eee1e1b5a, type: 3}
