%YAML 1.1
%TAG !u! tag:unity3d.com,2011:
--- !u!1001 &5161748361033258849
PrefabInstance:
  m_ObjectHideFlags: 0
  serializedVersion: 2
  m_Modification:
    m_TransformParent: {fileID: 0}
    m_Modifications:
    - target: {fileID: 6535170925441478194, guid: 9c7e0a425a0a90243bc23420cf8d80e3,
        type: 3}
      propertyPath: m_Name
      value: FloatingTextScaleUpSlide - Dark Choco
      objectReference: {fileID: 0}
    - target: {fileID: 6535170925441478205, guid: 9c7e0a425a0a90243bc23420cf8d80e3,
        type: 3}
      propertyPath: m_LocalPosition.x
      value: 0
      objectReference: {fileID: 0}
    - target: {fileID: 6535170925441478205, guid: 9c7e0a425a0a90243bc23420cf8d80e3,
        type: 3}
      propertyPath: m_LocalPosition.y
      value: 0
      objectReference: {fileID: 0}
    - target: {fileID: 6535170925441478205, guid: 9c7e0a425a0a90243bc23420cf8d80e3,
        type: 3}
      propertyPath: m_LocalPosition.z
      value: 0
      objectReference: {fileID: 0}
    - target: {fileID: 6535170925441478205, guid: 9c7e0a425a0a90243bc23420cf8d80e3,
        type: 3}
      propertyPath: m_LocalRotation.x
      value: 0
      objectReference: {fileID: 0}
    - target: {fileID: 6535170925441478205, guid: 9c7e0a425a0a90243bc23420cf8d80e3,
        type: 3}
      propertyPath: m_LocalRotation.y
      value: 1
      objectReference: {fileID: 0}
    - target: {fileID: 6535170925441478205, guid: 9c7e0a425a0a90243bc23420cf8d80e3,
        type: 3}
      propertyPath: m_LocalRotation.z
      value: 0
      objectReference: {fileID: 0}
    - target: {fileID: 6535170925441478205, guid: 9c7e0a425a0a90243bc23420cf8d80e3,
        type: 3}
      propertyPath: m_LocalRotation.w
      value: 0
      objectReference: {fileID: 0}
    - target: {fileID: 6535170925441478205, guid: 9c7e0a425a0a90243bc23420cf8d80e3,
        type: 3}
      propertyPath: m_RootOrder
      value: 0
      objectReference: {fileID: 0}
    - target: {fileID: 6535170925441478205, guid: 9c7e0a425a0a90243bc23420cf8d80e3,
        type: 3}
      propertyPath: m_LocalEulerAnglesHint.x
      value: 0
      objectReference: {fileID: 0}
    - target: {fileID: 6535170925441478205, guid: 9c7e0a425a0a90243bc23420cf8d80e3,
        type: 3}
      propertyPath: m_LocalEulerAnglesHint.y
      value: 180
      objectReference: {fileID: 0}
    - target: {fileID: 6535170925441478205, guid: 9c7e0a425a0a90243bc23420cf8d80e3,
        type: 3}
      propertyPath: m_LocalEulerAnglesHint.z
      value: 0
      objectReference: {fileID: 0}
    - target: {fileID: 1662566774654629386, guid: 9c7e0a425a0a90243bc23420cf8d80e3,
        type: 3}
      propertyPath: m_Controller
      value: 
      objectReference: {fileID: 9100000, guid: 3ac53aa69c576944b8b0b04e0d8a4f09, type: 2}
    m_RemovedComponents: []
  m_SourcePrefab: {fileID: 100100000, guid: 9c7e0a425a0a90243bc23420cf8d80e3, type: 3}
