%YAML 1.1
%TAG !u! tag:unity3d.com,2011:
--- !u!114 &11400000
MonoBehaviour:
  m_ObjectHideFlags: 0
  m_CorrespondingSourceObject: {fileID: 0}
  m_PrefabInstance: {fileID: 0}
  m_PrefabAsset: {fileID: 0}
  m_GameObject: {fileID: 0}
  m_Enabled: 1
  m_EditorHideFlags: 0
  m_Script: {fileID: 11500000, guid: 56d92e3d91d429e40ac996a94e482f4c, type: 3}
  m_Name: Mace
  m_EditorClassIdentifier: 
  weaponSprite: {fileID: 21300000, guid: 8aae0510d2fa030468ca55987527f19a, type: 3}
  weapon: 1
  weaponDescription: A heavy club with a spiked metal head
  usage: '* Swing controller to move mace.

    * Relase trigger to fire.

    * Press touchpad to activate shield.

    * Press back button on controller to exit.'
