%YAML 1.1
%TAG !u! tag:unity3d.com,2011:
--- !u!21 &2100000
Material:
  serializedVersion: 6
  m_ObjectHideFlags: 0
  m_CorrespondingSourceObject: {fileID: 0}
  m_PrefabInstance: {fileID: 0}
  m_PrefabAsset: {fileID: 0}
  m_Name: UniqueProjectiles_Additive_8x8
  m_Shader: {fileID: 4800000, guid: b7839dad95683814aa64166edc107ae2, type: 3}
  m_ShaderKeywords: _ALPHABLEND_ON
  m_LightmapFlags: 0
  m_EnableInstancingVariants: 0
  m_DoubleSidedGI: 0
  m_CustomRenderQueue: 3000
  stringTagMap:
    RenderType: Transparent
  disabledShaderPasses:
  - ALWAYS
  m_SavedProperties:
    serializedVersion: 3
    m_TexEnvs:
    - _BumpMap:
        m_Texture: {fileID: 0}
        m_Scale: {x: 1, y: 1}
        m_Offset: {x: 0, y: 0}
    - _ColorRamp:
        m_Texture: {fileID: 2800000, guid: d886c0cb73a19514a8be80f38031dd73, type: 3}
        m_Scale: {x: 1, y: 1}
        m_Offset: {x: 0, y: 0}
    - _DetailAlbedoMap:
        m_Texture: {fileID: 0}
        m_Scale: {x: 1, y: 1}
        m_Offset: {x: 0, y: 0}
    - _DetailMask:
        m_Texture: {fileID: 0}
        m_Scale: {x: 1, y: 1}
        m_Offset: {x: 0, y: 0}
    - _DetailNormalMap:
        m_Texture: {fileID: 0}
        m_Scale: {x: 1, y: 1}
        m_Offset: {x: 0, y: 0}
    - _Distortion:
        m_Texture: {fileID: 2800000, guid: 82f4b06147155c54da475b309b9e24fa, type: 3}
        m_Scale: {x: 1, y: 1}
        m_Offset: {x: 0, y: 0}
    - _EmissionMap:
        m_Texture: {fileID: 0}
        m_Scale: {x: 1, y: 1}
        m_Offset: {x: 0, y: 0}
    - _Gradient:
        m_Texture: {fileID: 2800000, guid: 28c7aad1372ff114b90d330f8a2dd938, type: 3}
        m_Scale: {x: 1, y: 1}
        m_Offset: {x: 0, y: 0}
    - _MainTex:
        m_Texture: {fileID: 2800000, guid: 566d351cfa19ae74f9a7a3391be6f903, type: 3}
        m_Scale: {x: 1, y: 1}
        m_Offset: {x: 0, y: 0}
    - _MainTexutre:
        m_Texture: {fileID: 2800000, guid: d8eae515899ccb146b07ff12b1ba76df, type: 3}
        m_Scale: {x: 1, y: 1}
        m_Offset: {x: 0, y: 0}
    - _Mask:
        m_Texture: {fileID: 2800000, guid: 03e4ee8d0b5f45045bb12e2930ed4058, type: 3}
        m_Scale: {x: 1, y: 1}
        m_Offset: {x: 0, y: 0}
    - _MetallicGlossMap:
        m_Texture: {fileID: 0}
        m_Scale: {x: 1, y: 1}
        m_Offset: {x: 0, y: 0}
    - _OcclusionMap:
        m_Texture: {fileID: 0}
        m_Scale: {x: 1, y: 1}
        m_Offset: {x: 0, y: 0}
    - _ParallaxMap:
        m_Texture: {fileID: 0}
        m_Scale: {x: 1, y: 1}
        m_Offset: {x: 0, y: 0}
    m_Floats:
    - _BlendOp: 0
    - _BumpScale: 1
    - _CameraFadingEnabled: 0
    - _CameraFarFadeDistance: 2
    - _CameraNearFadeDistance: 1
    - _ColorMultiplier: 1.5
    - _Cull: 2
    - _Cutoff: 0.5
    - _DetailNormalMapScale: 1
    - _DistortMainTexture: 0
    - _DistortionUSpeed: 0
    - _DistortionVSpeed: 0
    - _DoubleSided: 1
    - _DstBlend: 1
    - _EdgeSoftness: 0
    - _EmissionEnabled: 0
    - _FaceSignClamp: 1
    - _FlipbookMode: 0
    - _GlossMapScale: 1
    - _Glossiness: 0.5
    - _GlossyReflections: 1
    - _GradientPower: 0
    - _GradientUSpeed: 0
    - _GradientVSpeed: 0
    - _LightingEnabled: 1
    - _MainTextureUSpeed: 0
    - _MainTextureVSpeed: 0
    - _Metallic: 0
    - _Mode: 4
    - _NoiseAmount: 0
    - _OcclusionStrength: 1
    - _Parallax: 0.02
    - _SmoothnessTextureChannel: 0
    - _SoftParticlesEnabled: 0
    - _SoftParticlesFarFadeDistance: 1
    - _SoftParticlesNearFadeDistance: 0
    - _Softness: 0
    - _SpecularHighlights: 1
    - _SrcBlend: 5
    - _UVSec: 0
    - _ZWrite: 0
    m_Colors:
    - _CameraFadeParams: {r: 0, g: Infinity, b: 0, a: 0}
    - _Color: {r: 1, g: 1, b: 1, a: 1}
    - _EmissionColor: {r: 0, g: 0, b: 0, a: 1}
    - _SoftParticleFadeParams: {r: 0, g: 0, b: 0, a: 0}
    - _TintColor: {r: 0.75, g: 0.75, b: 0.75, a: 1}
