%YAML 1.1
%TAG !u! tag:unity3d.com,2011:
--- !u!114 &11400000
MonoBehaviour:
  m_ObjectHideFlags: 0
  m_CorrespondingSourceObject: {fileID: 0}
  m_PrefabInstance: {fileID: 0}
  m_PrefabAsset: {fileID: 0}
  m_GameObject: {fileID: 0}
  m_Enabled: 1
  m_EditorHideFlags: 0
  m_Script: {fileID: 11500000, guid: 593308d2c174d264ebbf2d110eb5fad4, type: 3}
  m_Name: BheemCharacter
  m_EditorClassIdentifier: 
  characterSprite: {fileID: 21300000, guid: 163f3d417df81a9439410dae4305abad, type: 3}
  characterName: Bheem
  characterDescription: Bheema - The Maceman
  weapon: {fileID: 11400000, guid: d431174e66792b448bf8b8c52c5b022f, type: 2}
  family: 0
