%YAML 1.1
%TAG !u! tag:unity3d.com,2011:
--- !u!114 &11400000
MonoBehaviour:
  m_ObjectHideFlags: 0
  m_CorrespondingSourceObject: {fileID: 0}
  m_PrefabInstance: {fileID: 0}
  m_PrefabAsset: {fileID: 0}
  m_GameObject: {fileID: 0}
  m_Enabled: 1
  m_EditorHideFlags: 0
  m_Script: {fileID: 11500000, guid: 593308d2c174d264ebbf2d110eb5fad4, type: 3}
  m_Name: KarnaCharacter
  m_EditorClassIdentifier: 
  characterSprite: {fileID: 21300000, guid: e1f230c6bde10434abdd64e75fb0519f, type: 3}
  characterName: Karna
  characterDescription: Karna - Loyal friend
  weapon: {fileID: 11400000, guid: 15f86facc82b3ed49bc8593980f3e3d6, type: 2}
  family: 1
