%YAML 1.1
%TAG !u! tag:unity3d.com,2011:
--- !u!1001 &4549364431593254540
PrefabInstance:
  m_ObjectHideFlags: 0
  serializedVersion: 2
  m_Modification:
    m_TransformParent: {fileID: 0}
    m_Modifications:
    - target: {fileID: 191038552035664054, guid: ec051433a03c0294fbd0b95e30d765ca,
        type: 3}
      propertyPath: m_Name
      value: Projectile FX Pool Variant
      objectReference: {fileID: 0}
    - target: {fileID: 191038552035664055, guid: ec051433a03c0294fbd0b95e30d765ca,
        type: 3}
      propertyPath: m_LocalPosition.x
      value: 0
      objectReference: {fileID: 0}
    - target: {fileID: 191038552035664055, guid: ec051433a03c0294fbd0b95e30d765ca,
        type: 3}
      propertyPath: m_LocalPosition.y
      value: 0
      objectReference: {fileID: 0}
    - target: {fileID: 191038552035664055, guid: ec051433a03c0294fbd0b95e30d765ca,
        type: 3}
      propertyPath: m_LocalPosition.z
      value: 0
      objectReference: {fileID: 0}
    - target: {fileID: 191038552035664055, guid: ec051433a03c0294fbd0b95e30d765ca,
        type: 3}
      propertyPath: m_LocalRotation.x
      value: -0
      objectReference: {fileID: 0}
    - target: {fileID: 191038552035664055, guid: ec051433a03c0294fbd0b95e30d765ca,
        type: 3}
      propertyPath: m_LocalRotation.y
      value: -0
      objectReference: {fileID: 0}
    - target: {fileID: 191038552035664055, guid: ec051433a03c0294fbd0b95e30d765ca,
        type: 3}
      propertyPath: m_LocalRotation.z
      value: -0
      objectReference: {fileID: 0}
    - target: {fileID: 191038552035664055, guid: ec051433a03c0294fbd0b95e30d765ca,
        type: 3}
      propertyPath: m_LocalRotation.w
      value: 1
      objectReference: {fileID: 0}
    - target: {fileID: 191038552035664055, guid: ec051433a03c0294fbd0b95e30d765ca,
        type: 3}
      propertyPath: m_RootOrder
      value: 0
      objectReference: {fileID: 0}
    - target: {fileID: 191038552035664055, guid: ec051433a03c0294fbd0b95e30d765ca,
        type: 3}
      propertyPath: m_LocalEulerAnglesHint.x
      value: 0
      objectReference: {fileID: 0}
    - target: {fileID: 191038552035664055, guid: ec051433a03c0294fbd0b95e30d765ca,
        type: 3}
      propertyPath: m_LocalEulerAnglesHint.y
      value: 0
      objectReference: {fileID: 0}
    - target: {fileID: 191038552035664055, guid: ec051433a03c0294fbd0b95e30d765ca,
        type: 3}
      propertyPath: m_LocalEulerAnglesHint.z
      value: 0
      objectReference: {fileID: 0}
    - target: {fileID: 191038552035664052, guid: ec051433a03c0294fbd0b95e30d765ca,
        type: 3}
      propertyPath: Template.Array.size
      value: 6
      objectReference: {fileID: 0}
    - target: {fileID: 191038552035664052, guid: ec051433a03c0294fbd0b95e30d765ca,
        type: 3}
      propertyPath: Template.Array.data[0]
      value: 
      objectReference: {fileID: 43942964187708894, guid: b7f22140ea6e78d4a8eedd9c0fb5207e,
        type: 3}
    - target: {fileID: 191038552035664052, guid: ec051433a03c0294fbd0b95e30d765ca,
        type: 3}
      propertyPath: PoolName
      value: Projectile
      objectReference: {fileID: 0}
    - target: {fileID: 191038552035664052, guid: ec051433a03c0294fbd0b95e30d765ca,
        type: 3}
      propertyPath: PoolSize
      value: 10
      objectReference: {fileID: 0}
    - target: {fileID: 191038552035664052, guid: ec051433a03c0294fbd0b95e30d765ca,
        type: 3}
      propertyPath: Template.Array.data[1]
      value: 
      objectReference: {fileID: 2508063831893224660, guid: 28561484a44f7564ea94cefc91ceedf2,
        type: 3}
    - target: {fileID: 191038552035664052, guid: ec051433a03c0294fbd0b95e30d765ca,
        type: 3}
      propertyPath: Template.Array.data[2]
      value: 
      objectReference: {fileID: 3681467843780686576, guid: 219bbf0bc9a93ef4f91fddb476cc8462,
        type: 3}
    - target: {fileID: 191038552035664052, guid: ec051433a03c0294fbd0b95e30d765ca,
        type: 3}
      propertyPath: Template.Array.data[3]
      value: 
      objectReference: {fileID: 6018092138645862705, guid: dbda191e935038a4fa4e0a48b9682722,
        type: 3}
    - target: {fileID: 191038552035664052, guid: ec051433a03c0294fbd0b95e30d765ca,
        type: 3}
      propertyPath: Template.Array.data[4]
      value: 
      objectReference: {fileID: 4976544597984414123, guid: b83d7c275d63099479278a9f2f4884b1,
        type: 3}
    - target: {fileID: 191038552035664052, guid: ec051433a03c0294fbd0b95e30d765ca,
        type: 3}
      propertyPath: Template.Array.data[5]
      value: 
      objectReference: {fileID: 4619467077410508281, guid: 825fcb12096d6794784ac495ba8bef25,
        type: 3}
    - target: {fileID: 191038552035664052, guid: ec051433a03c0294fbd0b95e30d765ca,
        type: 3}
      propertyPath: Template.Array.data[6]
      value: 
      objectReference: {fileID: 6018092138645862705, guid: dbda191e935038a4fa4e0a48b9682722,
        type: 3}
    - target: {fileID: 191038552035664052, guid: ec051433a03c0294fbd0b95e30d765ca,
        type: 3}
      propertyPath: Template.Array.data[7]
      value: 
      objectReference: {fileID: 3681467843780686576, guid: 219bbf0bc9a93ef4f91fddb476cc8462,
        type: 3}
    - target: {fileID: 191038552035664052, guid: ec051433a03c0294fbd0b95e30d765ca,
        type: 3}
      propertyPath: Template.Array.data[8]
      value: 
      objectReference: {fileID: 2508063831893224660, guid: 28561484a44f7564ea94cefc91ceedf2,
        type: 3}
    - target: {fileID: 191038552035664052, guid: ec051433a03c0294fbd0b95e30d765ca,
        type: 3}
      propertyPath: Template.Array.data[9]
      value: 
      objectReference: {fileID: 43942964187708894, guid: b7f22140ea6e78d4a8eedd9c0fb5207e,
        type: 3}
    - target: {fileID: 191038552035664052, guid: ec051433a03c0294fbd0b95e30d765ca,
        type: 3}
      propertyPath: Template.Array.data[10]
      value: 
      objectReference: {fileID: 8536136617364580318, guid: ac73c1cf28a70f24da6fa874801964a4,
        type: 3}
    - target: {fileID: 191038552035664052, guid: ec051433a03c0294fbd0b95e30d765ca,
        type: 3}
      propertyPath: Template.Array.data[11]
      value: 
      objectReference: {fileID: 5142186532884791070, guid: c1ecbe1191cfe4643804e9106026680f,
        type: 3}
    - target: {fileID: 191038552035664052, guid: ec051433a03c0294fbd0b95e30d765ca,
        type: 3}
      propertyPath: Template.Array.data[12]
      value: 
      objectReference: {fileID: 4619467077410508281, guid: 825fcb12096d6794784ac495ba8bef25,
        type: 3}
    - target: {fileID: 191038552035664052, guid: ec051433a03c0294fbd0b95e30d765ca,
        type: 3}
      propertyPath: Template.Array.data[13]
      value: 
      objectReference: {fileID: 4245982223508605952, guid: f039447c0fc917341995f59dbffccb45,
        type: 3}
    - target: {fileID: 191038552035664052, guid: ec051433a03c0294fbd0b95e30d765ca,
        type: 3}
      propertyPath: Template.Array.data[14]
      value: 
      objectReference: {fileID: 4976544597984414123, guid: b83d7c275d63099479278a9f2f4884b1,
        type: 3}
    - target: {fileID: 191038552035664052, guid: ec051433a03c0294fbd0b95e30d765ca,
        type: 3}
      propertyPath: Template.Array.data[15]
      value: 
      objectReference: {fileID: 6018092138645862705, guid: dbda191e935038a4fa4e0a48b9682722,
        type: 3}
    - target: {fileID: 191038552035664052, guid: ec051433a03c0294fbd0b95e30d765ca,
        type: 3}
      propertyPath: Template.Array.data[16]
      value: 
      objectReference: {fileID: 3681467843780686576, guid: 219bbf0bc9a93ef4f91fddb476cc8462,
        type: 3}
    - target: {fileID: 191038552035664052, guid: ec051433a03c0294fbd0b95e30d765ca,
        type: 3}
      propertyPath: Template.Array.data[17]
      value: 
      objectReference: {fileID: 5856338952567032601, guid: c5126e4eff19e984e9f2c1a55332118d,
        type: 3}
    - target: {fileID: 191038552035664052, guid: ec051433a03c0294fbd0b95e30d765ca,
        type: 3}
      propertyPath: Template.Array.data[18]
      value: 
      objectReference: {fileID: 2279876784902232000, guid: ee48d159e3cfb1e448e4cf5863b6a47e,
        type: 3}
    m_RemovedComponents: []
  m_SourcePrefab: {fileID: 100100000, guid: ec051433a03c0294fbd0b95e30d765ca, type: 3}
