%YAML 1.1
%TAG !u! tag:unity3d.com,2011:
--- !u!4 &1398715600645066604 stripped
Transform:
  m_CorrespondingSourceObject: {fileID: 4469007532099660, guid: 22d6eca7f0c9598449f2566e043ab643,
    type: 3}
  m_PrefabInstance: {fileID: 1398047608039802656}
  m_PrefabAsset: {fileID: 0}
--- !u!4 &1398715600630822524 stripped
Transform:
  m_CorrespondingSourceObject: {fileID: 4469007532099660, guid: 22d6eca7f0c9598449f2566e043ab643,
    type: 3}
  m_PrefabInstance: {fileID: 1398047608086642224}
  m_PrefabAsset: {fileID: 0}
--- !u!4 &1398715601190664707 stripped
Transform:
  m_CorrespondingSourceObject: {fileID: 4469007532099660, guid: 22d6eca7f0c9598449f2566e043ab643,
    type: 3}
  m_PrefabInstance: {fileID: 1398047607509955151}
  m_PrefabAsset: {fileID: 0}
--- !u!4 &1398715600873941446 stripped
Transform:
  m_CorrespondingSourceObject: {fileID: 4469007532099660, guid: 22d6eca7f0c9598449f2566e043ab643,
    type: 3}
  m_PrefabInstance: {fileID: 1398047607322861962}
  m_PrefabAsset: {fileID: 0}
--- !u!1 &1398047607815030834
GameObject:
  m_ObjectHideFlags: 0
  m_CorrespondingSourceObject: {fileID: 0}
  m_PrefabInstance: {fileID: 0}
  m_PrefabAsset: {fileID: 0}
  serializedVersion: 6
  m_Component:
  - component: {fileID: 1398047607815030989}
  m_Layer: 0
  m_Name: GlowBalls
  m_TagString: Untagged
  m_Icon: {fileID: 0}
  m_NavMeshLayer: 0
  m_StaticEditorFlags: 4294967295
  m_IsActive: 1
--- !u!4 &1398047607815030989
Transform:
  m_ObjectHideFlags: 0
  m_CorrespondingSourceObject: {fileID: 0}
  m_PrefabInstance: {fileID: 0}
  m_PrefabAsset: {fileID: 0}
  m_GameObject: {fileID: 1398047607815030834}
  m_LocalRotation: {x: 0.7071068, y: -0, z: -0, w: 0.7071068}
  m_LocalPosition: {x: -6.8, y: -8.800001, z: -3.30064}
  m_LocalScale: {x: 1, y: 1, z: 1}
  m_Children:
  - {fileID: 1398715600645066604}
  - {fileID: 1398715600630822524}
  - {fileID: 1398715601190664707}
  - {fileID: 1398715600873941446}
  m_Father: {fileID: 1398047607908206309}
  m_RootOrder: 0
  m_LocalEulerAnglesHint: {x: 0, y: 0, z: 0}
--- !u!1 &1398047607908206314
GameObject:
  m_ObjectHideFlags: 0
  m_CorrespondingSourceObject: {fileID: 0}
  m_PrefabInstance: {fileID: 0}
  m_PrefabAsset: {fileID: 0}
  serializedVersion: 6
  m_Component:
  - component: {fileID: 1398047607908206309}
  - component: {fileID: 1398047607908206311}
  - component: {fileID: 1398047607908206308}
  - component: {fileID: 1398047607908206310}
  m_Layer: 8
  m_Name: Mage Circle
  m_TagString: Untagged
  m_Icon: {fileID: 0}
  m_NavMeshLayer: 0
  m_StaticEditorFlags: 4294967295
  m_IsActive: 1
--- !u!4 &1398047607908206309
Transform:
  m_ObjectHideFlags: 0
  m_CorrespondingSourceObject: {fileID: 0}
  m_PrefabInstance: {fileID: 0}
  m_PrefabAsset: {fileID: 0}
  m_GameObject: {fileID: 1398047607908206314}
  m_LocalRotation: {x: -0.7071068, y: -0, z: -0, w: 0.7071068}
  m_LocalPosition: {x: 6.8, y: 3.300639, z: -8.8}
  m_LocalScale: {x: 1, y: 1, z: 1}
  m_Children:
  - {fileID: 1398047607815030989}
  m_Father: {fileID: 0}
  m_RootOrder: 0
  m_LocalEulerAnglesHint: {x: 0, y: 0, z: 0}
--- !u!33 &1398047607908206311
MeshFilter:
  m_ObjectHideFlags: 0
  m_CorrespondingSourceObject: {fileID: 0}
  m_PrefabInstance: {fileID: 0}
  m_PrefabAsset: {fileID: 0}
  m_GameObject: {fileID: 1398047607908206314}
  m_Mesh: {fileID: 4300034, guid: ae02a22f1b8d14810a92c3d05d1e9072, type: 3}
--- !u!23 &1398047607908206308
MeshRenderer:
  m_ObjectHideFlags: 0
  m_CorrespondingSourceObject: {fileID: 0}
  m_PrefabInstance: {fileID: 0}
  m_PrefabAsset: {fileID: 0}
  m_GameObject: {fileID: 1398047607908206314}
  m_Enabled: 1
  m_CastShadows: 1
  m_ReceiveShadows: 1
  m_DynamicOccludee: 1
  m_MotionVectors: 1
  m_LightProbeUsage: 1
  m_ReflectionProbeUsage: 1
  m_RenderingLayerMask: 1
  m_RendererPriority: 0
  m_Materials:
  - {fileID: 2100000, guid: 9f880334e01d048ff88c8dbfd9883b4e, type: 2}
  - {fileID: 2100000, guid: e42c248485a1a4b8e90fa3641cda47e9, type: 2}
  m_StaticBatchInfo:
    firstSubMesh: 0
    subMeshCount: 0
  m_StaticBatchRoot: {fileID: 0}
  m_ProbeAnchor: {fileID: 0}
  m_LightProbeVolumeOverride: {fileID: 0}
  m_ScaleInLightmap: 1
  m_PreserveUVs: 0
  m_IgnoreNormalsForChartDetection: 0
  m_ImportantGI: 0
  m_StitchLightmapSeams: 0
  m_SelectedEditorRenderState: 3
  m_MinimumChartSize: 4
  m_AutoUVMaxDistance: 0.5
  m_AutoUVMaxAngle: 89
  m_LightmapParameters: {fileID: 0}
  m_SortingLayerID: 0
  m_SortingLayer: 0
  m_SortingOrder: 0
--- !u!64 &1398047607908206310
MeshCollider:
  m_ObjectHideFlags: 0
  m_CorrespondingSourceObject: {fileID: 0}
  m_PrefabInstance: {fileID: 0}
  m_PrefabAsset: {fileID: 0}
  m_GameObject: {fileID: 1398047607908206314}
  m_Material: {fileID: 0}
  m_IsTrigger: 0
  m_Enabled: 1
  serializedVersion: 3
  m_Convex: 0
  m_CookingOptions: 14
  m_Mesh: {fileID: 4300034, guid: ae02a22f1b8d14810a92c3d05d1e9072, type: 3}
--- !u!1001 &1398047607322861962
PrefabInstance:
  m_ObjectHideFlags: 0
  serializedVersion: 2
  m_Modification:
    m_TransformParent: {fileID: 1398047607815030989}
    m_Modifications:
    - target: {fileID: 4469007532099660, guid: 22d6eca7f0c9598449f2566e043ab643, type: 3}
      propertyPath: m_LocalPosition.x
      value: 4.26
      objectReference: {fileID: 0}
    - target: {fileID: 4469007532099660, guid: 22d6eca7f0c9598449f2566e043ab643, type: 3}
      propertyPath: m_LocalPosition.y
      value: 3.48
      objectReference: {fileID: 0}
    - target: {fileID: 4469007532099660, guid: 22d6eca7f0c9598449f2566e043ab643, type: 3}
      propertyPath: m_LocalPosition.z
      value: -6.23
      objectReference: {fileID: 0}
    - target: {fileID: 4469007532099660, guid: 22d6eca7f0c9598449f2566e043ab643, type: 3}
      propertyPath: m_LocalRotation.x
      value: -0.7071068
      objectReference: {fileID: 0}
    - target: {fileID: 4469007532099660, guid: 22d6eca7f0c9598449f2566e043ab643, type: 3}
      propertyPath: m_LocalRotation.y
      value: -0
      objectReference: {fileID: 0}
    - target: {fileID: 4469007532099660, guid: 22d6eca7f0c9598449f2566e043ab643, type: 3}
      propertyPath: m_LocalRotation.z
      value: -0
      objectReference: {fileID: 0}
    - target: {fileID: 4469007532099660, guid: 22d6eca7f0c9598449f2566e043ab643, type: 3}
      propertyPath: m_LocalRotation.w
      value: 0.7071068
      objectReference: {fileID: 0}
    - target: {fileID: 4469007532099660, guid: 22d6eca7f0c9598449f2566e043ab643, type: 3}
      propertyPath: m_RootOrder
      value: 3
      objectReference: {fileID: 0}
    - target: {fileID: 198352197673353738, guid: 22d6eca7f0c9598449f2566e043ab643,
        type: 3}
      propertyPath: LightsModule.light
      value: 
      objectReference: {fileID: 0}
    - target: {fileID: 4469007532099660, guid: 22d6eca7f0c9598449f2566e043ab643, type: 3}
      propertyPath: m_LocalScale.y
      value: 1
      objectReference: {fileID: 0}
    - target: {fileID: 4469007532099660, guid: 22d6eca7f0c9598449f2566e043ab643, type: 3}
      propertyPath: m_LocalScale.z
      value: 1
      objectReference: {fileID: 0}
    - target: {fileID: 198352197673353738, guid: 22d6eca7f0c9598449f2566e043ab643,
        type: 3}
      propertyPath: randomSeed
      value: 0
      objectReference: {fileID: 0}
    - target: {fileID: 198427892058995556, guid: 22d6eca7f0c9598449f2566e043ab643,
        type: 3}
      propertyPath: randomSeed
      value: 0
      objectReference: {fileID: 0}
    - target: {fileID: 198251025729180936, guid: 22d6eca7f0c9598449f2566e043ab643,
        type: 3}
      propertyPath: randomSeed
      value: 0
      objectReference: {fileID: 0}
    - target: {fileID: 1576396588404016, guid: 22d6eca7f0c9598449f2566e043ab643, type: 3}
      propertyPath: m_Name
      value: GlowBall (3)
      objectReference: {fileID: 0}
    - target: {fileID: 1576396588404016, guid: 22d6eca7f0c9598449f2566e043ab643, type: 3}
      propertyPath: m_StaticEditorFlags
      value: 4294967295
      objectReference: {fileID: 0}
    - target: {fileID: 1376877392041436, guid: 22d6eca7f0c9598449f2566e043ab643, type: 3}
      propertyPath: m_StaticEditorFlags
      value: 4294967295
      objectReference: {fileID: 0}
    - target: {fileID: 1263261995000544, guid: 22d6eca7f0c9598449f2566e043ab643, type: 3}
      propertyPath: m_StaticEditorFlags
      value: 4294967295
      objectReference: {fileID: 0}
    - target: {fileID: 1670073526402686, guid: 22d6eca7f0c9598449f2566e043ab643, type: 3}
      propertyPath: m_StaticEditorFlags
      value: 4294967295
      objectReference: {fileID: 0}
    - target: {fileID: 1069164359462216, guid: 22d6eca7f0c9598449f2566e043ab643, type: 3}
      propertyPath: m_StaticEditorFlags
      value: 4294967295
      objectReference: {fileID: 0}
    m_RemovedComponents: []
  m_SourcePrefab: {fileID: 100100000, guid: 22d6eca7f0c9598449f2566e043ab643, type: 3}
--- !u!1001 &1398047607509955151
PrefabInstance:
  m_ObjectHideFlags: 0
  serializedVersion: 2
  m_Modification:
    m_TransformParent: {fileID: 1398047607815030989}
    m_Modifications:
    - target: {fileID: 4469007532099660, guid: 22d6eca7f0c9598449f2566e043ab643, type: 3}
      propertyPath: m_LocalPosition.x
      value: 4.21
      objectReference: {fileID: 0}
    - target: {fileID: 4469007532099660, guid: 22d6eca7f0c9598449f2566e043ab643, type: 3}
      propertyPath: m_LocalPosition.y
      value: 3.48
      objectReference: {fileID: 0}
    - target: {fileID: 4469007532099660, guid: 22d6eca7f0c9598449f2566e043ab643, type: 3}
      propertyPath: m_LocalPosition.z
      value: -11.3
      objectReference: {fileID: 0}
    - target: {fileID: 4469007532099660, guid: 22d6eca7f0c9598449f2566e043ab643, type: 3}
      propertyPath: m_LocalRotation.x
      value: -0.7071068
      objectReference: {fileID: 0}
    - target: {fileID: 4469007532099660, guid: 22d6eca7f0c9598449f2566e043ab643, type: 3}
      propertyPath: m_LocalRotation.y
      value: -0
      objectReference: {fileID: 0}
    - target: {fileID: 4469007532099660, guid: 22d6eca7f0c9598449f2566e043ab643, type: 3}
      propertyPath: m_LocalRotation.z
      value: -0
      objectReference: {fileID: 0}
    - target: {fileID: 4469007532099660, guid: 22d6eca7f0c9598449f2566e043ab643, type: 3}
      propertyPath: m_LocalRotation.w
      value: 0.7071068
      objectReference: {fileID: 0}
    - target: {fileID: 4469007532099660, guid: 22d6eca7f0c9598449f2566e043ab643, type: 3}
      propertyPath: m_RootOrder
      value: 2
      objectReference: {fileID: 0}
    - target: {fileID: 198352197673353738, guid: 22d6eca7f0c9598449f2566e043ab643,
        type: 3}
      propertyPath: LightsModule.light
      value: 
      objectReference: {fileID: 0}
    - target: {fileID: 4469007532099660, guid: 22d6eca7f0c9598449f2566e043ab643, type: 3}
      propertyPath: m_LocalScale.y
      value: 1
      objectReference: {fileID: 0}
    - target: {fileID: 4469007532099660, guid: 22d6eca7f0c9598449f2566e043ab643, type: 3}
      propertyPath: m_LocalScale.z
      value: 1
      objectReference: {fileID: 0}
    - target: {fileID: 198352197673353738, guid: 22d6eca7f0c9598449f2566e043ab643,
        type: 3}
      propertyPath: randomSeed
      value: 0
      objectReference: {fileID: 0}
    - target: {fileID: 198427892058995556, guid: 22d6eca7f0c9598449f2566e043ab643,
        type: 3}
      propertyPath: randomSeed
      value: 0
      objectReference: {fileID: 0}
    - target: {fileID: 198251025729180936, guid: 22d6eca7f0c9598449f2566e043ab643,
        type: 3}
      propertyPath: randomSeed
      value: 0
      objectReference: {fileID: 0}
    - target: {fileID: 1576396588404016, guid: 22d6eca7f0c9598449f2566e043ab643, type: 3}
      propertyPath: m_Name
      value: GlowBall (2)
      objectReference: {fileID: 0}
    - target: {fileID: 1376877392041436, guid: 22d6eca7f0c9598449f2566e043ab643, type: 3}
      propertyPath: m_StaticEditorFlags
      value: 4294967295
      objectReference: {fileID: 0}
    - target: {fileID: 1069164359462216, guid: 22d6eca7f0c9598449f2566e043ab643, type: 3}
      propertyPath: m_StaticEditorFlags
      value: 4294967295
      objectReference: {fileID: 0}
    - target: {fileID: 1263261995000544, guid: 22d6eca7f0c9598449f2566e043ab643, type: 3}
      propertyPath: m_StaticEditorFlags
      value: 4294967295
      objectReference: {fileID: 0}
    - target: {fileID: 1576396588404016, guid: 22d6eca7f0c9598449f2566e043ab643, type: 3}
      propertyPath: m_StaticEditorFlags
      value: 4294967295
      objectReference: {fileID: 0}
    - target: {fileID: 1670073526402686, guid: 22d6eca7f0c9598449f2566e043ab643, type: 3}
      propertyPath: m_StaticEditorFlags
      value: 4294967295
      objectReference: {fileID: 0}
    m_RemovedComponents: []
  m_SourcePrefab: {fileID: 100100000, guid: 22d6eca7f0c9598449f2566e043ab643, type: 3}
--- !u!1001 &1398047608039802656
PrefabInstance:
  m_ObjectHideFlags: 0
  serializedVersion: 2
  m_Modification:
    m_TransformParent: {fileID: 1398047607815030989}
    m_Modifications:
    - target: {fileID: 4469007532099660, guid: 22d6eca7f0c9598449f2566e043ab643, type: 3}
      propertyPath: m_LocalPosition.x
      value: 9.3
      objectReference: {fileID: 0}
    - target: {fileID: 4469007532099660, guid: 22d6eca7f0c9598449f2566e043ab643, type: 3}
      propertyPath: m_LocalPosition.y
      value: 3.48
      objectReference: {fileID: 0}
    - target: {fileID: 4469007532099660, guid: 22d6eca7f0c9598449f2566e043ab643, type: 3}
      propertyPath: m_LocalPosition.z
      value: -6.3
      objectReference: {fileID: 0}
    - target: {fileID: 4469007532099660, guid: 22d6eca7f0c9598449f2566e043ab643, type: 3}
      propertyPath: m_LocalRotation.x
      value: -0.7071068
      objectReference: {fileID: 0}
    - target: {fileID: 4469007532099660, guid: 22d6eca7f0c9598449f2566e043ab643, type: 3}
      propertyPath: m_LocalRotation.y
      value: -0
      objectReference: {fileID: 0}
    - target: {fileID: 4469007532099660, guid: 22d6eca7f0c9598449f2566e043ab643, type: 3}
      propertyPath: m_LocalRotation.z
      value: -0
      objectReference: {fileID: 0}
    - target: {fileID: 4469007532099660, guid: 22d6eca7f0c9598449f2566e043ab643, type: 3}
      propertyPath: m_LocalRotation.w
      value: 0.7071068
      objectReference: {fileID: 0}
    - target: {fileID: 4469007532099660, guid: 22d6eca7f0c9598449f2566e043ab643, type: 3}
      propertyPath: m_RootOrder
      value: 0
      objectReference: {fileID: 0}
    - target: {fileID: 4469007532099660, guid: 22d6eca7f0c9598449f2566e043ab643, type: 3}
      propertyPath: m_LocalScale.y
      value: 1
      objectReference: {fileID: 0}
    - target: {fileID: 4469007532099660, guid: 22d6eca7f0c9598449f2566e043ab643, type: 3}
      propertyPath: m_LocalScale.z
      value: 1
      objectReference: {fileID: 0}
    - target: {fileID: 198352197673353738, guid: 22d6eca7f0c9598449f2566e043ab643,
        type: 3}
      propertyPath: randomSeed
      value: 0
      objectReference: {fileID: 0}
    - target: {fileID: 198251025729180936, guid: 22d6eca7f0c9598449f2566e043ab643,
        type: 3}
      propertyPath: randomSeed
      value: 0
      objectReference: {fileID: 0}
    - target: {fileID: 198427892058995556, guid: 22d6eca7f0c9598449f2566e043ab643,
        type: 3}
      propertyPath: randomSeed
      value: 0
      objectReference: {fileID: 0}
    - target: {fileID: 1376877392041436, guid: 22d6eca7f0c9598449f2566e043ab643, type: 3}
      propertyPath: m_StaticEditorFlags
      value: 4294967295
      objectReference: {fileID: 0}
    - target: {fileID: 1263261995000544, guid: 22d6eca7f0c9598449f2566e043ab643, type: 3}
      propertyPath: m_StaticEditorFlags
      value: 4294967295
      objectReference: {fileID: 0}
    - target: {fileID: 1670073526402686, guid: 22d6eca7f0c9598449f2566e043ab643, type: 3}
      propertyPath: m_StaticEditorFlags
      value: 4294967295
      objectReference: {fileID: 0}
    - target: {fileID: 1576396588404016, guid: 22d6eca7f0c9598449f2566e043ab643, type: 3}
      propertyPath: m_StaticEditorFlags
      value: 4294967295
      objectReference: {fileID: 0}
    - target: {fileID: 1069164359462216, guid: 22d6eca7f0c9598449f2566e043ab643, type: 3}
      propertyPath: m_StaticEditorFlags
      value: 4294967295
      objectReference: {fileID: 0}
    m_RemovedComponents: []
  m_SourcePrefab: {fileID: 100100000, guid: 22d6eca7f0c9598449f2566e043ab643, type: 3}
--- !u!1001 &1398047608086642224
PrefabInstance:
  m_ObjectHideFlags: 0
  serializedVersion: 2
  m_Modification:
    m_TransformParent: {fileID: 1398047607815030989}
    m_Modifications:
    - target: {fileID: 4469007532099660, guid: 22d6eca7f0c9598449f2566e043ab643, type: 3}
      propertyPath: m_LocalPosition.x
      value: 9.32
      objectReference: {fileID: 0}
    - target: {fileID: 4469007532099660, guid: 22d6eca7f0c9598449f2566e043ab643, type: 3}
      propertyPath: m_LocalPosition.y
      value: 3.48
      objectReference: {fileID: 0}
    - target: {fileID: 4469007532099660, guid: 22d6eca7f0c9598449f2566e043ab643, type: 3}
      propertyPath: m_LocalPosition.z
      value: -11.33
      objectReference: {fileID: 0}
    - target: {fileID: 4469007532099660, guid: 22d6eca7f0c9598449f2566e043ab643, type: 3}
      propertyPath: m_LocalRotation.x
      value: -0.7071068
      objectReference: {fileID: 0}
    - target: {fileID: 4469007532099660, guid: 22d6eca7f0c9598449f2566e043ab643, type: 3}
      propertyPath: m_LocalRotation.y
      value: -0
      objectReference: {fileID: 0}
    - target: {fileID: 4469007532099660, guid: 22d6eca7f0c9598449f2566e043ab643, type: 3}
      propertyPath: m_LocalRotation.z
      value: -0
      objectReference: {fileID: 0}
    - target: {fileID: 4469007532099660, guid: 22d6eca7f0c9598449f2566e043ab643, type: 3}
      propertyPath: m_LocalRotation.w
      value: 0.7071068
      objectReference: {fileID: 0}
    - target: {fileID: 4469007532099660, guid: 22d6eca7f0c9598449f2566e043ab643, type: 3}
      propertyPath: m_RootOrder
      value: 1
      objectReference: {fileID: 0}
    - target: {fileID: 198352197673353738, guid: 22d6eca7f0c9598449f2566e043ab643,
        type: 3}
      propertyPath: LightsModule.light
      value: 
      objectReference: {fileID: 0}
    - target: {fileID: 4469007532099660, guid: 22d6eca7f0c9598449f2566e043ab643, type: 3}
      propertyPath: m_LocalScale.y
      value: 1
      objectReference: {fileID: 0}
    - target: {fileID: 4469007532099660, guid: 22d6eca7f0c9598449f2566e043ab643, type: 3}
      propertyPath: m_LocalScale.z
      value: 1
      objectReference: {fileID: 0}
    - target: {fileID: 198352197673353738, guid: 22d6eca7f0c9598449f2566e043ab643,
        type: 3}
      propertyPath: randomSeed
      value: 0
      objectReference: {fileID: 0}
    - target: {fileID: 198427892058995556, guid: 22d6eca7f0c9598449f2566e043ab643,
        type: 3}
      propertyPath: randomSeed
      value: 0
      objectReference: {fileID: 0}
    - target: {fileID: 198251025729180936, guid: 22d6eca7f0c9598449f2566e043ab643,
        type: 3}
      propertyPath: randomSeed
      value: 0
      objectReference: {fileID: 0}
    - target: {fileID: 1576396588404016, guid: 22d6eca7f0c9598449f2566e043ab643, type: 3}
      propertyPath: m_Name
      value: GlowBall (1)
      objectReference: {fileID: 0}
    - target: {fileID: 1263261995000544, guid: 22d6eca7f0c9598449f2566e043ab643, type: 3}
      propertyPath: m_StaticEditorFlags
      value: 4294967295
      objectReference: {fileID: 0}
    - target: {fileID: 1576396588404016, guid: 22d6eca7f0c9598449f2566e043ab643, type: 3}
      propertyPath: m_StaticEditorFlags
      value: 4294967295
      objectReference: {fileID: 0}
    - target: {fileID: 1670073526402686, guid: 22d6eca7f0c9598449f2566e043ab643, type: 3}
      propertyPath: m_StaticEditorFlags
      value: 4294967295
      objectReference: {fileID: 0}
    - target: {fileID: 1069164359462216, guid: 22d6eca7f0c9598449f2566e043ab643, type: 3}
      propertyPath: m_StaticEditorFlags
      value: 4294967295
      objectReference: {fileID: 0}
    - target: {fileID: 1376877392041436, guid: 22d6eca7f0c9598449f2566e043ab643, type: 3}
      propertyPath: m_StaticEditorFlags
      value: 4294967295
      objectReference: {fileID: 0}
    m_RemovedComponents: []
  m_SourcePrefab: {fileID: 100100000, guid: 22d6eca7f0c9598449f2566e043ab643, type: 3}
