%YAML 1.1
%TAG !u! tag:unity3d.com,2011:
--- !u!1001 &7039175447500159256
PrefabInstance:
  m_ObjectHideFlags: 0
  serializedVersion: 2
  m_Modification:
    m_TransformParent: {fileID: 3103973031340669898}
    m_Modifications:
    - target: {fileID: 3916246210456369212, guid: 73ac9c132aa61654c948f1904aecd676,
        type: 3}
      propertyPath: m_Name
      value: General Pick Variant
      objectReference: {fileID: 0}
    - target: {fileID: 3916246210456369212, guid: 73ac9c132aa61654c948f1904aecd676,
        type: 3}
      propertyPath: m_StaticEditorFlags
      value: 0
      objectReference: {fileID: 0}
    - target: {fileID: 3916246210456705018, guid: 73ac9c132aa61654c948f1904aecd676,
        type: 3}
      propertyPath: m_LocalPosition.x
      value: 0
      objectReference: {fileID: 0}
    - target: {fileID: 3916246210456705018, guid: 73ac9c132aa61654c948f1904aecd676,
        type: 3}
      propertyPath: m_LocalPosition.y
      value: 0
      objectReference: {fileID: 0}
    - target: {fileID: 3916246210456705018, guid: 73ac9c132aa61654c948f1904aecd676,
        type: 3}
      propertyPath: m_LocalPosition.z
      value: 0
      objectReference: {fileID: 0}
    - target: {fileID: 3916246210456705018, guid: 73ac9c132aa61654c948f1904aecd676,
        type: 3}
      propertyPath: m_LocalRotation.x
      value: 0
      objectReference: {fileID: 0}
    - target: {fileID: 3916246210456705018, guid: 73ac9c132aa61654c948f1904aecd676,
        type: 3}
      propertyPath: m_LocalRotation.y
      value: 0
      objectReference: {fileID: 0}
    - target: {fileID: 3916246210456705018, guid: 73ac9c132aa61654c948f1904aecd676,
        type: 3}
      propertyPath: m_LocalRotation.z
      value: 0
      objectReference: {fileID: 0}
    - target: {fileID: 3916246210456705018, guid: 73ac9c132aa61654c948f1904aecd676,
        type: 3}
      propertyPath: m_LocalRotation.w
      value: 1
      objectReference: {fileID: 0}
    - target: {fileID: 3916246210456705018, guid: 73ac9c132aa61654c948f1904aecd676,
        type: 3}
      propertyPath: m_RootOrder
      value: 1
      objectReference: {fileID: 0}
    - target: {fileID: 3916246210456705018, guid: 73ac9c132aa61654c948f1904aecd676,
        type: 3}
      propertyPath: m_LocalEulerAnglesHint.x
      value: 0
      objectReference: {fileID: 0}
    - target: {fileID: 3916246210456705018, guid: 73ac9c132aa61654c948f1904aecd676,
        type: 3}
      propertyPath: m_LocalEulerAnglesHint.y
      value: 0
      objectReference: {fileID: 0}
    - target: {fileID: 3916246210456705018, guid: 73ac9c132aa61654c948f1904aecd676,
        type: 3}
      propertyPath: m_LocalEulerAnglesHint.z
      value: 0
      objectReference: {fileID: 0}
    - target: {fileID: 2820784139494680798, guid: 73ac9c132aa61654c948f1904aecd676,
        type: 3}
      propertyPath: combat
      value: 
      objectReference: {fileID: 3103973031340669943}
    - target: {fileID: 3916246210456452042, guid: 73ac9c132aa61654c948f1904aecd676,
        type: 3}
      propertyPath: m_StaticEditorFlags
      value: 0
      objectReference: {fileID: 0}
    - target: {fileID: 3916246210456359470, guid: 73ac9c132aa61654c948f1904aecd676,
        type: 3}
      propertyPath: m_StaticEditorFlags
      value: 0
      objectReference: {fileID: 0}
    - target: {fileID: 3916246210456352054, guid: 73ac9c132aa61654c948f1904aecd676,
        type: 3}
      propertyPath: m_StaticEditorFlags
      value: 0
      objectReference: {fileID: 0}
    - target: {fileID: 3916246210456322938, guid: 73ac9c132aa61654c948f1904aecd676,
        type: 3}
      propertyPath: m_StaticEditorFlags
      value: 0
      objectReference: {fileID: 0}
    - target: {fileID: 3916246210456545984, guid: 73ac9c132aa61654c948f1904aecd676,
        type: 3}
      propertyPath: m_StaticEditorFlags
      value: 0
      objectReference: {fileID: 0}
    - target: {fileID: 3916246210456533262, guid: 73ac9c132aa61654c948f1904aecd676,
        type: 3}
      propertyPath: m_StaticEditorFlags
      value: 0
      objectReference: {fileID: 0}
    - target: {fileID: 3916246210467905644, guid: 73ac9c132aa61654c948f1904aecd676,
        type: 3}
      propertyPath: m_CastShadows
      value: 0
      objectReference: {fileID: 0}
    - target: {fileID: 3916246210467899818, guid: 73ac9c132aa61654c948f1904aecd676,
        type: 3}
      propertyPath: m_CastShadows
      value: 0
      objectReference: {fileID: 0}
    - target: {fileID: 3916246210467895474, guid: 73ac9c132aa61654c948f1904aecd676,
        type: 3}
      propertyPath: m_CastShadows
      value: 0
      objectReference: {fileID: 0}
    - target: {fileID: 3916246210468106348, guid: 73ac9c132aa61654c948f1904aecd676,
        type: 3}
      propertyPath: m_CastShadows
      value: 0
      objectReference: {fileID: 0}
    - target: {fileID: 3916246210468061854, guid: 73ac9c132aa61654c948f1904aecd676,
        type: 3}
      propertyPath: m_CastShadows
      value: 0
      objectReference: {fileID: 0}
    - target: {fileID: 3916246210456531580, guid: 73ac9c132aa61654c948f1904aecd676,
        type: 3}
      propertyPath: m_StaticEditorFlags
      value: 0
      objectReference: {fileID: 0}
    - target: {fileID: 3916246210456384140, guid: 73ac9c132aa61654c948f1904aecd676,
        type: 3}
      propertyPath: m_StaticEditorFlags
      value: 0
      objectReference: {fileID: 0}
    - target: {fileID: 3916246210456365740, guid: 73ac9c132aa61654c948f1904aecd676,
        type: 3}
      propertyPath: m_StaticEditorFlags
      value: 0
      objectReference: {fileID: 0}
    - target: {fileID: 3916246210456348064, guid: 73ac9c132aa61654c948f1904aecd676,
        type: 3}
      propertyPath: m_StaticEditorFlags
      value: 0
      objectReference: {fileID: 0}
    - target: {fileID: 3916246210456337510, guid: 73ac9c132aa61654c948f1904aecd676,
        type: 3}
      propertyPath: m_StaticEditorFlags
      value: 0
      objectReference: {fileID: 0}
    - target: {fileID: 3916246210456338254, guid: 73ac9c132aa61654c948f1904aecd676,
        type: 3}
      propertyPath: m_StaticEditorFlags
      value: 0
      objectReference: {fileID: 0}
    - target: {fileID: 3916246210456538968, guid: 73ac9c132aa61654c948f1904aecd676,
        type: 3}
      propertyPath: m_StaticEditorFlags
      value: 0
      objectReference: {fileID: 0}
    - target: {fileID: 3916246210456529552, guid: 73ac9c132aa61654c948f1904aecd676,
        type: 3}
      propertyPath: m_StaticEditorFlags
      value: 0
      objectReference: {fileID: 0}
    - target: {fileID: 3916246210456524422, guid: 73ac9c132aa61654c948f1904aecd676,
        type: 3}
      propertyPath: m_StaticEditorFlags
      value: 0
      objectReference: {fileID: 0}
    - target: {fileID: 3916246210456521388, guid: 73ac9c132aa61654c948f1904aecd676,
        type: 3}
      propertyPath: m_StaticEditorFlags
      value: 0
      objectReference: {fileID: 0}
    - target: {fileID: 3916246210456361894, guid: 73ac9c132aa61654c948f1904aecd676,
        type: 3}
      propertyPath: m_StaticEditorFlags
      value: 0
      objectReference: {fileID: 0}
    - target: {fileID: 3916246210456341224, guid: 73ac9c132aa61654c948f1904aecd676,
        type: 3}
      propertyPath: m_StaticEditorFlags
      value: 0
      objectReference: {fileID: 0}
    - target: {fileID: 3916246210456532230, guid: 73ac9c132aa61654c948f1904aecd676,
        type: 3}
      propertyPath: m_StaticEditorFlags
      value: 0
      objectReference: {fileID: 0}
    - target: {fileID: 3916246210454669468, guid: 73ac9c132aa61654c948f1904aecd676,
        type: 3}
      propertyPath: m_CastShadows
      value: 0
      objectReference: {fileID: 0}
    - target: {fileID: 3916246210454650888, guid: 73ac9c132aa61654c948f1904aecd676,
        type: 3}
      propertyPath: m_CastShadows
      value: 0
      objectReference: {fileID: 0}
    - target: {fileID: 3916246210454650278, guid: 73ac9c132aa61654c948f1904aecd676,
        type: 3}
      propertyPath: m_CastShadows
      value: 0
      objectReference: {fileID: 0}
    - target: {fileID: 3916246210454336764, guid: 73ac9c132aa61654c948f1904aecd676,
        type: 3}
      propertyPath: m_CastShadows
      value: 0
      objectReference: {fileID: 0}
    - target: {fileID: 3916246210454331232, guid: 73ac9c132aa61654c948f1904aecd676,
        type: 3}
      propertyPath: m_CastShadows
      value: 0
      objectReference: {fileID: 0}
    - target: {fileID: 3916246210454310436, guid: 73ac9c132aa61654c948f1904aecd676,
        type: 3}
      propertyPath: m_CastShadows
      value: 0
      objectReference: {fileID: 0}
    - target: {fileID: 3916246210456385104, guid: 73ac9c132aa61654c948f1904aecd676,
        type: 3}
      propertyPath: m_StaticEditorFlags
      value: 0
      objectReference: {fileID: 0}
    - target: {fileID: 3916246210456329350, guid: 73ac9c132aa61654c948f1904aecd676,
        type: 3}
      propertyPath: m_StaticEditorFlags
      value: 0
      objectReference: {fileID: 0}
    - target: {fileID: 3916246210456546380, guid: 73ac9c132aa61654c948f1904aecd676,
        type: 3}
      propertyPath: m_StaticEditorFlags
      value: 0
      objectReference: {fileID: 0}
    - target: {fileID: 3916246210456451036, guid: 73ac9c132aa61654c948f1904aecd676,
        type: 3}
      propertyPath: m_StaticEditorFlags
      value: 0
      objectReference: {fileID: 0}
    - target: {fileID: 3916246210456378646, guid: 73ac9c132aa61654c948f1904aecd676,
        type: 3}
      propertyPath: m_StaticEditorFlags
      value: 0
      objectReference: {fileID: 0}
    - target: {fileID: 3916246210456372470, guid: 73ac9c132aa61654c948f1904aecd676,
        type: 3}
      propertyPath: m_StaticEditorFlags
      value: 0
      objectReference: {fileID: 0}
    - target: {fileID: 3916246210456357276, guid: 73ac9c132aa61654c948f1904aecd676,
        type: 3}
      propertyPath: m_StaticEditorFlags
      value: 0
      objectReference: {fileID: 0}
    - target: {fileID: 3916246210456345080, guid: 73ac9c132aa61654c948f1904aecd676,
        type: 3}
      propertyPath: m_StaticEditorFlags
      value: 0
      objectReference: {fileID: 0}
    - target: {fileID: 3916246210456539456, guid: 73ac9c132aa61654c948f1904aecd676,
        type: 3}
      propertyPath: m_StaticEditorFlags
      value: 0
      objectReference: {fileID: 0}
    - target: {fileID: 3916246210456535248, guid: 73ac9c132aa61654c948f1904aecd676,
        type: 3}
      propertyPath: m_StaticEditorFlags
      value: 0
      objectReference: {fileID: 0}
    - target: {fileID: 3916246210456383930, guid: 73ac9c132aa61654c948f1904aecd676,
        type: 3}
      propertyPath: m_StaticEditorFlags
      value: 0
      objectReference: {fileID: 0}
    - target: {fileID: 3916246210456370866, guid: 73ac9c132aa61654c948f1904aecd676,
        type: 3}
      propertyPath: m_StaticEditorFlags
      value: 0
      objectReference: {fileID: 0}
    - target: {fileID: 3916246210456345034, guid: 73ac9c132aa61654c948f1904aecd676,
        type: 3}
      propertyPath: m_StaticEditorFlags
      value: 0
      objectReference: {fileID: 0}
    - target: {fileID: 3916246210456338978, guid: 73ac9c132aa61654c948f1904aecd676,
        type: 3}
      propertyPath: m_StaticEditorFlags
      value: 0
      objectReference: {fileID: 0}
    - target: {fileID: 3916246210456335134, guid: 73ac9c132aa61654c948f1904aecd676,
        type: 3}
      propertyPath: m_StaticEditorFlags
      value: 0
      objectReference: {fileID: 0}
    - target: {fileID: 3916246210456331630, guid: 73ac9c132aa61654c948f1904aecd676,
        type: 3}
      propertyPath: m_StaticEditorFlags
      value: 0
      objectReference: {fileID: 0}
    - target: {fileID: 3916246210456384924, guid: 73ac9c132aa61654c948f1904aecd676,
        type: 3}
      propertyPath: m_StaticEditorFlags
      value: 0
      objectReference: {fileID: 0}
    - target: {fileID: 3916246210456370896, guid: 73ac9c132aa61654c948f1904aecd676,
        type: 3}
      propertyPath: m_StaticEditorFlags
      value: 0
      objectReference: {fileID: 0}
    - target: {fileID: 3916246210456367088, guid: 73ac9c132aa61654c948f1904aecd676,
        type: 3}
      propertyPath: m_StaticEditorFlags
      value: 0
      objectReference: {fileID: 0}
    - target: {fileID: 3916246210456543892, guid: 73ac9c132aa61654c948f1904aecd676,
        type: 3}
      propertyPath: m_StaticEditorFlags
      value: 0
      objectReference: {fileID: 0}
    - target: {fileID: 3916246210456526668, guid: 73ac9c132aa61654c948f1904aecd676,
        type: 3}
      propertyPath: m_StaticEditorFlags
      value: 0
      objectReference: {fileID: 0}
    - target: {fileID: 3916246210456326184, guid: 73ac9c132aa61654c948f1904aecd676,
        type: 3}
      propertyPath: m_StaticEditorFlags
      value: 0
      objectReference: {fileID: 0}
    - target: {fileID: 3916246210456548232, guid: 73ac9c132aa61654c948f1904aecd676,
        type: 3}
      propertyPath: m_StaticEditorFlags
      value: 0
      objectReference: {fileID: 0}
    - target: {fileID: 3916246210454346626, guid: 73ac9c132aa61654c948f1904aecd676,
        type: 3}
      propertyPath: m_CastShadows
      value: 0
      objectReference: {fileID: 0}
    - target: {fileID: 3634092646686563192, guid: 73ac9c132aa61654c948f1904aecd676,
        type: 3}
      propertyPath: m_StaticEditorFlags
      value: 0
      objectReference: {fileID: 0}
    - target: {fileID: 3916246210456369580, guid: 73ac9c132aa61654c948f1904aecd676,
        type: 3}
      propertyPath: m_StaticEditorFlags
      value: 0
      objectReference: {fileID: 0}
    - target: {fileID: 3916246210456346956, guid: 73ac9c132aa61654c948f1904aecd676,
        type: 3}
      propertyPath: m_StaticEditorFlags
      value: 0
      objectReference: {fileID: 0}
    - target: {fileID: 3916246210456331590, guid: 73ac9c132aa61654c948f1904aecd676,
        type: 3}
      propertyPath: m_StaticEditorFlags
      value: 0
      objectReference: {fileID: 0}
    - target: {fileID: 3916246210456545276, guid: 73ac9c132aa61654c948f1904aecd676,
        type: 3}
      propertyPath: m_StaticEditorFlags
      value: 0
      objectReference: {fileID: 0}
    - target: {fileID: 3916246210456534964, guid: 73ac9c132aa61654c948f1904aecd676,
        type: 3}
      propertyPath: m_StaticEditorFlags
      value: 0
      objectReference: {fileID: 0}
    - target: {fileID: 3916246210456519420, guid: 73ac9c132aa61654c948f1904aecd676,
        type: 3}
      propertyPath: m_StaticEditorFlags
      value: 0
      objectReference: {fileID: 0}
    - target: {fileID: 6540379459340531060, guid: 73ac9c132aa61654c948f1904aecd676,
        type: 3}
      propertyPath: m_CastShadows
      value: 0
      objectReference: {fileID: 0}
    - target: {fileID: 3916246210456384644, guid: 73ac9c132aa61654c948f1904aecd676,
        type: 3}
      propertyPath: m_StaticEditorFlags
      value: 0
      objectReference: {fileID: 0}
    - target: {fileID: 3916246210456382988, guid: 73ac9c132aa61654c948f1904aecd676,
        type: 3}
      propertyPath: m_StaticEditorFlags
      value: 0
      objectReference: {fileID: 0}
    - target: {fileID: 3916246210456365968, guid: 73ac9c132aa61654c948f1904aecd676,
        type: 3}
      propertyPath: m_StaticEditorFlags
      value: 0
      objectReference: {fileID: 0}
    - target: {fileID: 3916246210456326520, guid: 73ac9c132aa61654c948f1904aecd676,
        type: 3}
      propertyPath: m_StaticEditorFlags
      value: 0
      objectReference: {fileID: 0}
    - target: {fileID: 3916246210456543610, guid: 73ac9c132aa61654c948f1904aecd676,
        type: 3}
      propertyPath: m_StaticEditorFlags
      value: 0
      objectReference: {fileID: 0}
    - target: {fileID: 3916246210456543412, guid: 73ac9c132aa61654c948f1904aecd676,
        type: 3}
      propertyPath: m_StaticEditorFlags
      value: 0
      objectReference: {fileID: 0}
    - target: {fileID: 3916246210456380762, guid: 73ac9c132aa61654c948f1904aecd676,
        type: 3}
      propertyPath: m_StaticEditorFlags
      value: 0
      objectReference: {fileID: 0}
    - target: {fileID: 3916246210456361690, guid: 73ac9c132aa61654c948f1904aecd676,
        type: 3}
      propertyPath: m_StaticEditorFlags
      value: 0
      objectReference: {fileID: 0}
    - target: {fileID: 3916246210456359646, guid: 73ac9c132aa61654c948f1904aecd676,
        type: 3}
      propertyPath: m_StaticEditorFlags
      value: 0
      objectReference: {fileID: 0}
    - target: {fileID: 3916246210456352610, guid: 73ac9c132aa61654c948f1904aecd676,
        type: 3}
      propertyPath: m_StaticEditorFlags
      value: 0
      objectReference: {fileID: 0}
    - target: {fileID: 3916246210456326038, guid: 73ac9c132aa61654c948f1904aecd676,
        type: 3}
      propertyPath: m_StaticEditorFlags
      value: 0
      objectReference: {fileID: 0}
    - target: {fileID: 3916246210456535548, guid: 73ac9c132aa61654c948f1904aecd676,
        type: 3}
      propertyPath: m_StaticEditorFlags
      value: 0
      objectReference: {fileID: 0}
    - target: {fileID: 3916246210456452260, guid: 73ac9c132aa61654c948f1904aecd676,
        type: 3}
      propertyPath: m_StaticEditorFlags
      value: 0
      objectReference: {fileID: 0}
    - target: {fileID: 3916246210456379932, guid: 73ac9c132aa61654c948f1904aecd676,
        type: 3}
      propertyPath: m_StaticEditorFlags
      value: 0
      objectReference: {fileID: 0}
    - target: {fileID: 3916246210456361174, guid: 73ac9c132aa61654c948f1904aecd676,
        type: 3}
      propertyPath: m_StaticEditorFlags
      value: 0
      objectReference: {fileID: 0}
    - target: {fileID: 3916246210456520036, guid: 73ac9c132aa61654c948f1904aecd676,
        type: 3}
      propertyPath: m_StaticEditorFlags
      value: 0
      objectReference: {fileID: 0}
    m_RemovedComponents: []
  m_SourcePrefab: {fileID: 100100000, guid: 73ac9c132aa61654c948f1904aecd676, type: 3}
--- !u!1001 &7039175448640012726
PrefabInstance:
  m_ObjectHideFlags: 0
  serializedVersion: 2
  m_Modification:
    m_TransformParent: {fileID: 0}
    m_Modifications:
    - target: {fileID: 5378331224263965305, guid: 61c285c230a9f8444bfed7e06e5a2054,
        type: 3}
      propertyPath: m_Name
      value: Enemy_LowPoly_Pick Variant
      objectReference: {fileID: 0}
    - target: {fileID: 5378331224263965305, guid: 61c285c230a9f8444bfed7e06e5a2054,
        type: 3}
      propertyPath: m_StaticEditorFlags
      value: 0
      objectReference: {fileID: 0}
    - target: {fileID: 5378331224263965308, guid: 61c285c230a9f8444bfed7e06e5a2054,
        type: 3}
      propertyPath: m_LocalPosition.x
      value: 162.05
      objectReference: {fileID: 0}
    - target: {fileID: 5378331224263965308, guid: 61c285c230a9f8444bfed7e06e5a2054,
        type: 3}
      propertyPath: m_LocalPosition.y
      value: -4.62
      objectReference: {fileID: 0}
    - target: {fileID: 5378331224263965308, guid: 61c285c230a9f8444bfed7e06e5a2054,
        type: 3}
      propertyPath: m_LocalPosition.z
      value: 62.5
      objectReference: {fileID: 0}
    - target: {fileID: 5378331224263965308, guid: 61c285c230a9f8444bfed7e06e5a2054,
        type: 3}
      propertyPath: m_LocalRotation.x
      value: 0
      objectReference: {fileID: 0}
    - target: {fileID: 5378331224263965308, guid: 61c285c230a9f8444bfed7e06e5a2054,
        type: 3}
      propertyPath: m_LocalRotation.y
      value: 0
      objectReference: {fileID: 0}
    - target: {fileID: 5378331224263965308, guid: 61c285c230a9f8444bfed7e06e5a2054,
        type: 3}
      propertyPath: m_LocalRotation.z
      value: 0
      objectReference: {fileID: 0}
    - target: {fileID: 5378331224263965308, guid: 61c285c230a9f8444bfed7e06e5a2054,
        type: 3}
      propertyPath: m_LocalRotation.w
      value: 1
      objectReference: {fileID: 0}
    - target: {fileID: 5378331224263965308, guid: 61c285c230a9f8444bfed7e06e5a2054,
        type: 3}
      propertyPath: m_RootOrder
      value: 0
      objectReference: {fileID: 0}
    - target: {fileID: 5378331224263965308, guid: 61c285c230a9f8444bfed7e06e5a2054,
        type: 3}
      propertyPath: m_LocalEulerAnglesHint.x
      value: 0
      objectReference: {fileID: 0}
    - target: {fileID: 5378331224263965308, guid: 61c285c230a9f8444bfed7e06e5a2054,
        type: 3}
      propertyPath: m_LocalEulerAnglesHint.y
      value: 0
      objectReference: {fileID: 0}
    - target: {fileID: 5378331224263965308, guid: 61c285c230a9f8444bfed7e06e5a2054,
        type: 3}
      propertyPath: m_LocalEulerAnglesHint.z
      value: 0
      objectReference: {fileID: 0}
    - target: {fileID: 5378331224594085408, guid: 61c285c230a9f8444bfed7e06e5a2054,
        type: 3}
      propertyPath: m_StaticEditorFlags
      value: 0
      objectReference: {fileID: 0}
    - target: {fileID: 5378331224263965255, guid: 61c285c230a9f8444bfed7e06e5a2054,
        type: 3}
      propertyPath: defaultAttackAnimSet.Array.size
      value: 2
      objectReference: {fileID: 0}
    - target: {fileID: 5378331224263965248, guid: 61c285c230a9f8444bfed7e06e5a2054,
        type: 3}
      propertyPath: floatingTextPrefab
      value: 
      objectReference: {fileID: 5594325027634588655, guid: 1508f0e71af551b4fb7c043eee1e1b5a,
        type: 3}
    m_RemovedComponents: []
  m_SourcePrefab: {fileID: 100100000, guid: 61c285c230a9f8444bfed7e06e5a2054, type: 3}
--- !u!4 &3103973031340669898 stripped
Transform:
  m_CorrespondingSourceObject: {fileID: 5378331224263965308, guid: 61c285c230a9f8444bfed7e06e5a2054,
    type: 3}
  m_PrefabInstance: {fileID: 7039175448640012726}
  m_PrefabAsset: {fileID: 0}
--- !u!114 &3103973031340669943 stripped
MonoBehaviour:
  m_CorrespondingSourceObject: {fileID: 5378331224263965249, guid: 61c285c230a9f8444bfed7e06e5a2054,
    type: 3}
  m_PrefabInstance: {fileID: 7039175448640012726}
  m_PrefabAsset: {fileID: 0}
  m_GameObject: {fileID: 0}
  m_Enabled: 1
  m_EditorHideFlags: 0
  m_Script: {fileID: 11500000, guid: 038ce247d57296e4c99001fb519f501c, type: 3}
  m_Name: 
  m_EditorClassIdentifier: 
