%YAML 1.1
%TAG !u! tag:unity3d.com,2011:
--- !u!114 &7915168569707417609
MonoBehaviour:
  m_ObjectHideFlags: 0
  m_CorrespondingSourceObject: {fileID: 0}
  m_PrefabInstance: {fileID: 0}
  m_PrefabAsset: {fileID: 0}
  m_GameObject: {fileID: 3839022262991330424}
  m_Enabled: 1
  m_EditorHideFlags: 0
  m_Script: {fileID: 11500000, guid: 004b8ec0c25535c409b1f6115963d476, type: 3}
  m_Name: 
  m_EditorClassIdentifier: 
  Dirty: 0
--- !u!114 &7915168569707417610
MonoBehaviour:
  m_ObjectHideFlags: 0
  m_CorrespondingSourceObject: {fileID: 0}
  m_PrefabInstance: {fileID: 0}
  m_PrefabAsset: {fileID: 0}
  m_GameObject: {fileID: 3839022262991330424}
  m_Enabled: 1
  m_EditorHideFlags: 0
  m_Script: {fileID: 11500000, guid: 4e62188adca544cf1b96ccf1630f15f9, type: 3}
  m_Name: 
  m_EditorClassIdentifier: 
  DoNotTesselate: 0
  savedPos: {x: 0, y: 0, z: 0}
  savedUp: {x: 0, y: 0, z: 0}
  savedRectSize: {x: 200, y: 50}
  savedColor: {r: 0, g: 0, b: 0, a: 0}
  savedTextUV0: {x: 0, y: 0}
  savedFill: 0
--- !u!114 &7915168569707417613
MonoBehaviour:
  m_ObjectHideFlags: 0
  m_CorrespondingSourceObject: {fileID: 0}
  m_PrefabInstance: {fileID: 0}
  m_PrefabAsset: {fileID: 0}
  m_GameObject: {fileID: 3839022262490678631}
  m_Enabled: 1
  m_EditorHideFlags: 0
  m_Script: {fileID: 11500000, guid: 004b8ec0c25535c409b1f6115963d476, type: 3}
  m_Name: 
  m_EditorClassIdentifier: 
  Dirty: 0
--- !u!114 &7915168569707417614
MonoBehaviour:
  m_ObjectHideFlags: 0
  m_CorrespondingSourceObject: {fileID: 0}
  m_PrefabInstance: {fileID: 0}
  m_PrefabAsset: {fileID: 0}
  m_GameObject: {fileID: 3839022262490678631}
  m_Enabled: 1
  m_EditorHideFlags: 0
  m_Script: {fileID: 11500000, guid: 4e62188adca544cf1b96ccf1630f15f9, type: 3}
  m_Name: 
  m_EditorClassIdentifier: 
  DoNotTesselate: 0
  savedPos: {x: 0, y: 0, z: 0}
  savedUp: {x: 0, y: 0, z: 0}
  savedRectSize: {x: 200, y: 50}
  savedColor: {r: 0, g: 0, b: 0, a: 0}
  savedTextUV0: {x: 0, y: 0}
  savedFill: 0
--- !u!114 &7915168569707417611
MonoBehaviour:
  m_ObjectHideFlags: 0
  m_CorrespondingSourceObject: {fileID: 0}
  m_PrefabInstance: {fileID: 0}
  m_PrefabAsset: {fileID: 0}
  m_GameObject: {fileID: 3839022261298291033}
  m_Enabled: 1
  m_EditorHideFlags: 0
  m_Script: {fileID: 11500000, guid: 004b8ec0c25535c409b1f6115963d476, type: 3}
  m_Name: 
  m_EditorClassIdentifier: 
  Dirty: 0
--- !u!114 &7915168569707417612
MonoBehaviour:
  m_ObjectHideFlags: 0
  m_CorrespondingSourceObject: {fileID: 0}
  m_PrefabInstance: {fileID: 0}
  m_PrefabAsset: {fileID: 0}
  m_GameObject: {fileID: 3839022261298291033}
  m_Enabled: 1
  m_EditorHideFlags: 0
  m_Script: {fileID: 11500000, guid: 4e62188adca544cf1b96ccf1630f15f9, type: 3}
  m_Name: 
  m_EditorClassIdentifier: 
  DoNotTesselate: 0
  savedPos: {x: 0, y: 0, z: 0}
  savedUp: {x: 0, y: 0, z: 0}
  savedRectSize: {x: 200, y: 50}
  savedColor: {r: 0, g: 0, b: 0, a: 0}
  savedTextUV0: {x: 0, y: 0}
  savedFill: 0
--- !u!1001 &6385718931041120535
PrefabInstance:
  m_ObjectHideFlags: 0
  serializedVersion: 2
  m_Modification:
    m_TransformParent: {fileID: 0}
    m_Modifications:
    - target: {fileID: 6821908749252914066, guid: 32f536aa76f0ded4483ea1df092802cb,
        type: 3}
      propertyPath: m_Name
      value: Exit Game UI Variant With Sound FX
      objectReference: {fileID: 0}
    - target: {fileID: 6821908749252914066, guid: 32f536aa76f0ded4483ea1df092802cb,
        type: 3}
      propertyPath: m_IsActive
      value: 1
      objectReference: {fileID: 0}
    - target: {fileID: 6821908749252914068, guid: 32f536aa76f0ded4483ea1df092802cb,
        type: 3}
      propertyPath: m_LocalPosition.x
      value: 0
      objectReference: {fileID: 0}
    - target: {fileID: 6821908749252914068, guid: 32f536aa76f0ded4483ea1df092802cb,
        type: 3}
      propertyPath: m_LocalPosition.y
      value: 0
      objectReference: {fileID: 0}
    - target: {fileID: 6821908749252914068, guid: 32f536aa76f0ded4483ea1df092802cb,
        type: 3}
      propertyPath: m_LocalPosition.z
      value: 15
      objectReference: {fileID: 0}
    - target: {fileID: 6821908749252914068, guid: 32f536aa76f0ded4483ea1df092802cb,
        type: 3}
      propertyPath: m_LocalRotation.x
      value: -0
      objectReference: {fileID: 0}
    - target: {fileID: 6821908749252914068, guid: 32f536aa76f0ded4483ea1df092802cb,
        type: 3}
      propertyPath: m_LocalRotation.y
      value: -0
      objectReference: {fileID: 0}
    - target: {fileID: 6821908749252914068, guid: 32f536aa76f0ded4483ea1df092802cb,
        type: 3}
      propertyPath: m_LocalRotation.z
      value: -0
      objectReference: {fileID: 0}
    - target: {fileID: 6821908749252914068, guid: 32f536aa76f0ded4483ea1df092802cb,
        type: 3}
      propertyPath: m_LocalRotation.w
      value: 1
      objectReference: {fileID: 0}
    - target: {fileID: 6821908749252914068, guid: 32f536aa76f0ded4483ea1df092802cb,
        type: 3}
      propertyPath: m_RootOrder
      value: 0
      objectReference: {fileID: 0}
    - target: {fileID: 6821908749252914068, guid: 32f536aa76f0ded4483ea1df092802cb,
        type: 3}
      propertyPath: m_LocalEulerAnglesHint.x
      value: 0
      objectReference: {fileID: 0}
    - target: {fileID: 6821908749252914068, guid: 32f536aa76f0ded4483ea1df092802cb,
        type: 3}
      propertyPath: m_LocalEulerAnglesHint.y
      value: 0
      objectReference: {fileID: 0}
    - target: {fileID: 6821908749252914068, guid: 32f536aa76f0ded4483ea1df092802cb,
        type: 3}
      propertyPath: m_LocalEulerAnglesHint.z
      value: 0
      objectReference: {fileID: 0}
    - target: {fileID: 6425401419414731754, guid: 32f536aa76f0ded4483ea1df092802cb,
        type: 3}
      propertyPath: m_AnchoredPosition.x
      value: 0
      objectReference: {fileID: 0}
    - target: {fileID: 6425401419414731754, guid: 32f536aa76f0ded4483ea1df092802cb,
        type: 3}
      propertyPath: m_AnchoredPosition.y
      value: 0
      objectReference: {fileID: 0}
    - target: {fileID: 6425401419414731754, guid: 32f536aa76f0ded4483ea1df092802cb,
        type: 3}
      propertyPath: m_SizeDelta.x
      value: 1100
      objectReference: {fileID: 0}
    - target: {fileID: 6425401419414731754, guid: 32f536aa76f0ded4483ea1df092802cb,
        type: 3}
      propertyPath: m_SizeDelta.y
      value: 550
      objectReference: {fileID: 0}
    - target: {fileID: 6821908751112204641, guid: 32f536aa76f0ded4483ea1df092802cb,
        type: 3}
      propertyPath: savedRectSize.x
      value: 1100
      objectReference: {fileID: 0}
    - target: {fileID: 6821908751112204641, guid: 32f536aa76f0ded4483ea1df092802cb,
        type: 3}
      propertyPath: savedRectSize.y
      value: 550
      objectReference: {fileID: 0}
    - target: {fileID: 6425401419846656546, guid: 32f536aa76f0ded4483ea1df092802cb,
        type: 3}
      propertyPath: savedRectSize.x
      value: 1100
      objectReference: {fileID: 0}
    - target: {fileID: 6821908749965966786, guid: 32f536aa76f0ded4483ea1df092802cb,
        type: 3}
      propertyPath: savedRectSize.x
      value: 1100
      objectReference: {fileID: 0}
    - target: {fileID: 6821908749965966786, guid: 32f536aa76f0ded4483ea1df092802cb,
        type: 3}
      propertyPath: savedRectSize.y
      value: 550
      objectReference: {fileID: 0}
    - target: {fileID: 6425401419946521513, guid: 32f536aa76f0ded4483ea1df092802cb,
        type: 3}
      propertyPath: savedRectSize.x
      value: 1100
      objectReference: {fileID: 0}
    - target: {fileID: 6425401419946521513, guid: 32f536aa76f0ded4483ea1df092802cb,
        type: 3}
      propertyPath: savedRectSize.y
      value: 550
      objectReference: {fileID: 0}
    - target: {fileID: 6425401420596729071, guid: 32f536aa76f0ded4483ea1df092802cb,
        type: 3}
      propertyPath: savedRectSize.x
      value: 1100
      objectReference: {fileID: 0}
    - target: {fileID: 6821908750091842246, guid: 32f536aa76f0ded4483ea1df092802cb,
        type: 3}
      propertyPath: m_AnchorMin.y
      value: 0
      objectReference: {fileID: 0}
    - target: {fileID: 6821908750091842246, guid: 32f536aa76f0ded4483ea1df092802cb,
        type: 3}
      propertyPath: m_AnchorMax.y
      value: 0
      objectReference: {fileID: 0}
    - target: {fileID: 6821908750091842246, guid: 32f536aa76f0ded4483ea1df092802cb,
        type: 3}
      propertyPath: m_AnchoredPosition.x
      value: 0
      objectReference: {fileID: 0}
    - target: {fileID: 6821908750091842246, guid: 32f536aa76f0ded4483ea1df092802cb,
        type: 3}
      propertyPath: m_AnchoredPosition.y
      value: 0
      objectReference: {fileID: 0}
    - target: {fileID: 6821908750091842246, guid: 32f536aa76f0ded4483ea1df092802cb,
        type: 3}
      propertyPath: m_SizeDelta.x
      value: 0
      objectReference: {fileID: 0}
    - target: {fileID: 6821908750091842246, guid: 32f536aa76f0ded4483ea1df092802cb,
        type: 3}
      propertyPath: m_SizeDelta.y
      value: 0
      objectReference: {fileID: 0}
    - target: {fileID: 7915168569164000617, guid: 32f536aa76f0ded4483ea1df092802cb,
        type: 3}
      propertyPath: m_havePropertiesChanged
      value: 0
      objectReference: {fileID: 0}
    - target: {fileID: 7915168569164000617, guid: 32f536aa76f0ded4483ea1df092802cb,
        type: 3}
      propertyPath: m_isInputParsingRequired
      value: 0
      objectReference: {fileID: 0}
    - target: {fileID: 6821908749287386038, guid: 32f536aa76f0ded4483ea1df092802cb,
        type: 3}
      propertyPath: savedRectSize.x
      value: 1100
      objectReference: {fileID: 0}
    - target: {fileID: 6821908749287386038, guid: 32f536aa76f0ded4483ea1df092802cb,
        type: 3}
      propertyPath: savedRectSize.y
      value: 550
      objectReference: {fileID: 0}
    - target: {fileID: 6821908750417623776, guid: 32f536aa76f0ded4483ea1df092802cb,
        type: 3}
      propertyPath: m_AnchorMin.y
      value: 0
      objectReference: {fileID: 0}
    - target: {fileID: 6821908750417623776, guid: 32f536aa76f0ded4483ea1df092802cb,
        type: 3}
      propertyPath: m_AnchorMax.y
      value: 0
      objectReference: {fileID: 0}
    - target: {fileID: 6821908750417623776, guid: 32f536aa76f0ded4483ea1df092802cb,
        type: 3}
      propertyPath: m_AnchoredPosition.x
      value: 0
      objectReference: {fileID: 0}
    - target: {fileID: 6821908750417623776, guid: 32f536aa76f0ded4483ea1df092802cb,
        type: 3}
      propertyPath: m_AnchoredPosition.y
      value: 0
      objectReference: {fileID: 0}
    - target: {fileID: 6821908750417623776, guid: 32f536aa76f0ded4483ea1df092802cb,
        type: 3}
      propertyPath: m_SizeDelta.x
      value: 0
      objectReference: {fileID: 0}
    - target: {fileID: 6821908750417623776, guid: 32f536aa76f0ded4483ea1df092802cb,
        type: 3}
      propertyPath: m_SizeDelta.y
      value: 0
      objectReference: {fileID: 0}
    - target: {fileID: 95177209249911234, guid: 32f536aa76f0ded4483ea1df092802cb,
        type: 3}
      propertyPath: m_AnchorMin.y
      value: 0
      objectReference: {fileID: 0}
    - target: {fileID: 95177209249911234, guid: 32f536aa76f0ded4483ea1df092802cb,
        type: 3}
      propertyPath: m_AnchorMax.y
      value: 0
      objectReference: {fileID: 0}
    - target: {fileID: 95177209249911234, guid: 32f536aa76f0ded4483ea1df092802cb,
        type: 3}
      propertyPath: m_AnchoredPosition.x
      value: 0
      objectReference: {fileID: 0}
    - target: {fileID: 95177209249911234, guid: 32f536aa76f0ded4483ea1df092802cb,
        type: 3}
      propertyPath: m_AnchoredPosition.y
      value: 0
      objectReference: {fileID: 0}
    - target: {fileID: 95177209249911234, guid: 32f536aa76f0ded4483ea1df092802cb,
        type: 3}
      propertyPath: m_SizeDelta.x
      value: 0
      objectReference: {fileID: 0}
    - target: {fileID: 95177209249911234, guid: 32f536aa76f0ded4483ea1df092802cb,
        type: 3}
      propertyPath: m_SizeDelta.y
      value: 0
      objectReference: {fileID: 0}
    - target: {fileID: 95177208704410392, guid: 32f536aa76f0ded4483ea1df092802cb,
        type: 3}
      propertyPath: m_AnchorMin.y
      value: 0
      objectReference: {fileID: 0}
    - target: {fileID: 95177208704410392, guid: 32f536aa76f0ded4483ea1df092802cb,
        type: 3}
      propertyPath: m_AnchorMax.y
      value: 0
      objectReference: {fileID: 0}
    - target: {fileID: 95177208704410392, guid: 32f536aa76f0ded4483ea1df092802cb,
        type: 3}
      propertyPath: m_AnchoredPosition.x
      value: 0
      objectReference: {fileID: 0}
    - target: {fileID: 95177208704410392, guid: 32f536aa76f0ded4483ea1df092802cb,
        type: 3}
      propertyPath: m_AnchoredPosition.y
      value: 0
      objectReference: {fileID: 0}
    - target: {fileID: 95177208704410392, guid: 32f536aa76f0ded4483ea1df092802cb,
        type: 3}
      propertyPath: m_SizeDelta.x
      value: 0
      objectReference: {fileID: 0}
    - target: {fileID: 95177208704410392, guid: 32f536aa76f0ded4483ea1df092802cb,
        type: 3}
      propertyPath: m_SizeDelta.y
      value: 0
      objectReference: {fileID: 0}
    - target: {fileID: 6821908750266971206, guid: 32f536aa76f0ded4483ea1df092802cb,
        type: 3}
      propertyPath: m_AnchorMin.y
      value: 0
      objectReference: {fileID: 0}
    - target: {fileID: 6821908750266971206, guid: 32f536aa76f0ded4483ea1df092802cb,
        type: 3}
      propertyPath: m_AnchorMax.y
      value: 0
      objectReference: {fileID: 0}
    - target: {fileID: 6821908750266971206, guid: 32f536aa76f0ded4483ea1df092802cb,
        type: 3}
      propertyPath: m_AnchoredPosition.x
      value: 0
      objectReference: {fileID: 0}
    - target: {fileID: 6821908750266971206, guid: 32f536aa76f0ded4483ea1df092802cb,
        type: 3}
      propertyPath: m_AnchoredPosition.y
      value: 0
      objectReference: {fileID: 0}
    - target: {fileID: 6821908750266971206, guid: 32f536aa76f0ded4483ea1df092802cb,
        type: 3}
      propertyPath: m_SizeDelta.y
      value: 0
      objectReference: {fileID: 0}
    - target: {fileID: 95177207914508256, guid: 32f536aa76f0ded4483ea1df092802cb,
        type: 3}
      propertyPath: m_AnchorMin.y
      value: 0
      objectReference: {fileID: 0}
    - target: {fileID: 95177207914508256, guid: 32f536aa76f0ded4483ea1df092802cb,
        type: 3}
      propertyPath: m_AnchorMax.y
      value: 0
      objectReference: {fileID: 0}
    - target: {fileID: 95177207914508256, guid: 32f536aa76f0ded4483ea1df092802cb,
        type: 3}
      propertyPath: m_AnchoredPosition.x
      value: 0
      objectReference: {fileID: 0}
    - target: {fileID: 95177207914508256, guid: 32f536aa76f0ded4483ea1df092802cb,
        type: 3}
      propertyPath: m_AnchoredPosition.y
      value: 0
      objectReference: {fileID: 0}
    - target: {fileID: 95177207914508256, guid: 32f536aa76f0ded4483ea1df092802cb,
        type: 3}
      propertyPath: m_SizeDelta.x
      value: 0
      objectReference: {fileID: 0}
    - target: {fileID: 95177207970142427, guid: 32f536aa76f0ded4483ea1df092802cb,
        type: 3}
      propertyPath: m_AnchorMin.y
      value: 0
      objectReference: {fileID: 0}
    - target: {fileID: 95177207970142427, guid: 32f536aa76f0ded4483ea1df092802cb,
        type: 3}
      propertyPath: m_AnchorMax.y
      value: 0
      objectReference: {fileID: 0}
    - target: {fileID: 95177207970142427, guid: 32f536aa76f0ded4483ea1df092802cb,
        type: 3}
      propertyPath: m_AnchoredPosition.x
      value: 0
      objectReference: {fileID: 0}
    - target: {fileID: 95177207970142427, guid: 32f536aa76f0ded4483ea1df092802cb,
        type: 3}
      propertyPath: m_AnchoredPosition.y
      value: 0
      objectReference: {fileID: 0}
    - target: {fileID: 95177207970142427, guid: 32f536aa76f0ded4483ea1df092802cb,
        type: 3}
      propertyPath: m_SizeDelta.x
      value: 0
      objectReference: {fileID: 0}
    - target: {fileID: 6821908749218570148, guid: 32f536aa76f0ded4483ea1df092802cb,
        type: 3}
      propertyPath: m_AnchorMin.y
      value: 0
      objectReference: {fileID: 0}
    - target: {fileID: 6821908749218570148, guid: 32f536aa76f0ded4483ea1df092802cb,
        type: 3}
      propertyPath: m_AnchorMax.y
      value: 0
      objectReference: {fileID: 0}
    - target: {fileID: 6821908749218570148, guid: 32f536aa76f0ded4483ea1df092802cb,
        type: 3}
      propertyPath: m_AnchoredPosition.x
      value: 0
      objectReference: {fileID: 0}
    - target: {fileID: 6821908749218570148, guid: 32f536aa76f0ded4483ea1df092802cb,
        type: 3}
      propertyPath: m_AnchoredPosition.y
      value: 0
      objectReference: {fileID: 0}
    - target: {fileID: 6821908749218570148, guid: 32f536aa76f0ded4483ea1df092802cb,
        type: 3}
      propertyPath: m_SizeDelta.x
      value: 0
      objectReference: {fileID: 0}
    - target: {fileID: 6821908749218570148, guid: 32f536aa76f0ded4483ea1df092802cb,
        type: 3}
      propertyPath: m_SizeDelta.y
      value: 0
      objectReference: {fileID: 0}
    - target: {fileID: 6821908749172465945, guid: 32f536aa76f0ded4483ea1df092802cb,
        type: 3}
      propertyPath: m_AnchorMin.y
      value: 0
      objectReference: {fileID: 0}
    - target: {fileID: 6821908749172465945, guid: 32f536aa76f0ded4483ea1df092802cb,
        type: 3}
      propertyPath: m_AnchorMax.y
      value: 0
      objectReference: {fileID: 0}
    - target: {fileID: 6821908749172465945, guid: 32f536aa76f0ded4483ea1df092802cb,
        type: 3}
      propertyPath: m_AnchoredPosition.x
      value: 0
      objectReference: {fileID: 0}
    - target: {fileID: 6821908749172465945, guid: 32f536aa76f0ded4483ea1df092802cb,
        type: 3}
      propertyPath: m_AnchoredPosition.y
      value: 0
      objectReference: {fileID: 0}
    - target: {fileID: 6821908749172465945, guid: 32f536aa76f0ded4483ea1df092802cb,
        type: 3}
      propertyPath: m_SizeDelta.x
      value: 0
      objectReference: {fileID: 0}
    - target: {fileID: 6821908749172465945, guid: 32f536aa76f0ded4483ea1df092802cb,
        type: 3}
      propertyPath: m_SizeDelta.y
      value: 0
      objectReference: {fileID: 0}
    - target: {fileID: 6821908749948798747, guid: 32f536aa76f0ded4483ea1df092802cb,
        type: 3}
      propertyPath: m_AnchorMin.y
      value: 0
      objectReference: {fileID: 0}
    - target: {fileID: 6821908749948798747, guid: 32f536aa76f0ded4483ea1df092802cb,
        type: 3}
      propertyPath: m_AnchorMax.y
      value: 0
      objectReference: {fileID: 0}
    - target: {fileID: 6821908749948798747, guid: 32f536aa76f0ded4483ea1df092802cb,
        type: 3}
      propertyPath: m_AnchoredPosition.x
      value: 0
      objectReference: {fileID: 0}
    - target: {fileID: 6821908749948798747, guid: 32f536aa76f0ded4483ea1df092802cb,
        type: 3}
      propertyPath: m_AnchoredPosition.y
      value: 0
      objectReference: {fileID: 0}
    - target: {fileID: 6821908749948798747, guid: 32f536aa76f0ded4483ea1df092802cb,
        type: 3}
      propertyPath: m_SizeDelta.x
      value: 0
      objectReference: {fileID: 0}
    - target: {fileID: 6821908749948798747, guid: 32f536aa76f0ded4483ea1df092802cb,
        type: 3}
      propertyPath: m_SizeDelta.y
      value: 0
      objectReference: {fileID: 0}
    - target: {fileID: 95177209249460484, guid: 32f536aa76f0ded4483ea1df092802cb,
        type: 3}
      propertyPath: m_AnchorMin.y
      value: 0
      objectReference: {fileID: 0}
    - target: {fileID: 95177209249460484, guid: 32f536aa76f0ded4483ea1df092802cb,
        type: 3}
      propertyPath: m_AnchorMax.y
      value: 0
      objectReference: {fileID: 0}
    - target: {fileID: 95177209249460484, guid: 32f536aa76f0ded4483ea1df092802cb,
        type: 3}
      propertyPath: m_AnchoredPosition.x
      value: 0
      objectReference: {fileID: 0}
    - target: {fileID: 95177209249460484, guid: 32f536aa76f0ded4483ea1df092802cb,
        type: 3}
      propertyPath: m_AnchoredPosition.y
      value: 0
      objectReference: {fileID: 0}
    - target: {fileID: 95177209249460484, guid: 32f536aa76f0ded4483ea1df092802cb,
        type: 3}
      propertyPath: m_SizeDelta.x
      value: 0
      objectReference: {fileID: 0}
    - target: {fileID: 95177209249460484, guid: 32f536aa76f0ded4483ea1df092802cb,
        type: 3}
      propertyPath: m_SizeDelta.y
      value: 0
      objectReference: {fileID: 0}
    - target: {fileID: 95177208572642308, guid: 32f536aa76f0ded4483ea1df092802cb,
        type: 3}
      propertyPath: m_AnchorMin.y
      value: 0
      objectReference: {fileID: 0}
    - target: {fileID: 95177208572642308, guid: 32f536aa76f0ded4483ea1df092802cb,
        type: 3}
      propertyPath: m_AnchorMax.y
      value: 0
      objectReference: {fileID: 0}
    - target: {fileID: 95177208572642308, guid: 32f536aa76f0ded4483ea1df092802cb,
        type: 3}
      propertyPath: m_AnchoredPosition.x
      value: 0
      objectReference: {fileID: 0}
    - target: {fileID: 95177208572642308, guid: 32f536aa76f0ded4483ea1df092802cb,
        type: 3}
      propertyPath: m_AnchoredPosition.y
      value: 0
      objectReference: {fileID: 0}
    - target: {fileID: 95177208572642308, guid: 32f536aa76f0ded4483ea1df092802cb,
        type: 3}
      propertyPath: m_SizeDelta.x
      value: 0
      objectReference: {fileID: 0}
    - target: {fileID: 95177208572642308, guid: 32f536aa76f0ded4483ea1df092802cb,
        type: 3}
      propertyPath: m_SizeDelta.y
      value: 0
      objectReference: {fileID: 0}
    - target: {fileID: 95177207829737647, guid: 32f536aa76f0ded4483ea1df092802cb,
        type: 3}
      propertyPath: savedPos.x
      value: -201.73497
      objectReference: {fileID: 0}
    - target: {fileID: 95177207829737647, guid: 32f536aa76f0ded4483ea1df092802cb,
        type: 3}
      propertyPath: savedPos.y
      value: -114.584045
      objectReference: {fileID: 0}
    - target: {fileID: 6821908749823221264, guid: 32f536aa76f0ded4483ea1df092802cb,
        type: 3}
      propertyPath: savedPos.x
      value: -122.734985
      objectReference: {fileID: 0}
    - target: {fileID: 6821908749823221264, guid: 32f536aa76f0ded4483ea1df092802cb,
        type: 3}
      propertyPath: savedPos.y
      value: 184.99202
      objectReference: {fileID: 0}
    - target: {fileID: 6821908749948798748, guid: 32f536aa76f0ded4483ea1df092802cb,
        type: 3}
      propertyPath: savedRectSize.y
      value: 159.5681
      objectReference: {fileID: 0}
    - target: {fileID: 6821908749948798748, guid: 32f536aa76f0ded4483ea1df092802cb,
        type: 3}
      propertyPath: savedPos.x
      value: 2.2650144
      objectReference: {fileID: 0}
    - target: {fileID: 6821908749948798748, guid: 32f536aa76f0ded4483ea1df092802cb,
        type: 3}
      propertyPath: savedPos.y
      value: 35.19998
      objectReference: {fileID: 0}
    - target: {fileID: 95177208040893170, guid: 32f536aa76f0ded4483ea1df092802cb,
        type: 3}
      propertyPath: m_AnchorMin.y
      value: 0
      objectReference: {fileID: 0}
    - target: {fileID: 95177208040893170, guid: 32f536aa76f0ded4483ea1df092802cb,
        type: 3}
      propertyPath: m_AnchorMax.y
      value: 0
      objectReference: {fileID: 0}
    - target: {fileID: 95177208040893170, guid: 32f536aa76f0ded4483ea1df092802cb,
        type: 3}
      propertyPath: m_AnchoredPosition.x
      value: 0
      objectReference: {fileID: 0}
    - target: {fileID: 95177208040893170, guid: 32f536aa76f0ded4483ea1df092802cb,
        type: 3}
      propertyPath: m_AnchoredPosition.y
      value: 0
      objectReference: {fileID: 0}
    - target: {fileID: 95177208040893170, guid: 32f536aa76f0ded4483ea1df092802cb,
        type: 3}
      propertyPath: m_SizeDelta.x
      value: 0
      objectReference: {fileID: 0}
    - target: {fileID: 95177208040893170, guid: 32f536aa76f0ded4483ea1df092802cb,
        type: 3}
      propertyPath: m_SizeDelta.y
      value: 0
      objectReference: {fileID: 0}
    - target: {fileID: 6821908750658068057, guid: 32f536aa76f0ded4483ea1df092802cb,
        type: 3}
      propertyPath: savedRectSize.y
      value: 159.5681
      objectReference: {fileID: 0}
    - target: {fileID: 6821908750658068057, guid: 32f536aa76f0ded4483ea1df092802cb,
        type: 3}
      propertyPath: savedPos.x
      value: 2.2650144
      objectReference: {fileID: 0}
    - target: {fileID: 6821908750658068057, guid: 32f536aa76f0ded4483ea1df092802cb,
        type: 3}
      propertyPath: savedPos.y
      value: 35.19998
      objectReference: {fileID: 0}
    - target: {fileID: 7915168568933856370, guid: 32f536aa76f0ded4483ea1df092802cb,
        type: 3}
      propertyPath: m_havePropertiesChanged
      value: 0
      objectReference: {fileID: 0}
    - target: {fileID: 7915168568933856370, guid: 32f536aa76f0ded4483ea1df092802cb,
        type: 3}
      propertyPath: m_isInputParsingRequired
      value: 0
      objectReference: {fileID: 0}
    - target: {fileID: 7915168570696339528, guid: 32f536aa76f0ded4483ea1df092802cb,
        type: 3}
      propertyPath: m_havePropertiesChanged
      value: 0
      objectReference: {fileID: 0}
    - target: {fileID: 7915168570696339528, guid: 32f536aa76f0ded4483ea1df092802cb,
        type: 3}
      propertyPath: m_isInputParsingRequired
      value: 0
      objectReference: {fileID: 0}
    - target: {fileID: 6023170460949147742, guid: 32f536aa76f0ded4483ea1df092802cb,
        type: 3}
      propertyPath: savedRectSize.x
      value: 0
      objectReference: {fileID: 0}
    - target: {fileID: 6023170460949147742, guid: 32f536aa76f0ded4483ea1df092802cb,
        type: 3}
      propertyPath: savedRectSize.y
      value: 0
      objectReference: {fileID: 0}
    - target: {fileID: 95177208040893183, guid: 32f536aa76f0ded4483ea1df092802cb,
        type: 3}
      propertyPath: m_OnClick.m_PersistentCalls.m_Calls.Array.data[0].m_Target
      value: 
      objectReference: {fileID: 0}
    - target: {fileID: 95177208040893169, guid: 32f536aa76f0ded4483ea1df092802cb,
        type: 3}
      propertyPath: savedPos.x
      value: -265.10245
      objectReference: {fileID: 0}
    - target: {fileID: 95177208040893169, guid: 32f536aa76f0ded4483ea1df092802cb,
        type: 3}
      propertyPath: savedPos.y
      value: -207.68404
      objectReference: {fileID: 0}
    - target: {fileID: 4298175197752168088, guid: 32f536aa76f0ded4483ea1df092802cb,
        type: 3}
      propertyPath: m_Delegates.Array.data[0].callback.m_PersistentCalls.m_Calls.Array.size
      value: 2
      objectReference: {fileID: 0}
    - target: {fileID: 4298175197752168088, guid: 32f536aa76f0ded4483ea1df092802cb,
        type: 3}
      propertyPath: m_Delegates.Array.data[0].callback.m_PersistentCalls.m_Calls.Array.data[0].m_Target
      value: 
      objectReference: {fileID: 0}
    - target: {fileID: 4298175197752168088, guid: 32f536aa76f0ded4483ea1df092802cb,
        type: 3}
      propertyPath: m_Delegates.Array.data[0].callback.m_PersistentCalls.m_Calls.Array.data[1].m_Mode
      value: 1
      objectReference: {fileID: 0}
    - target: {fileID: 4298175197752168088, guid: 32f536aa76f0ded4483ea1df092802cb,
        type: 3}
      propertyPath: m_Delegates.Array.data[0].callback.m_PersistentCalls.m_Calls.Array.data[1].m_CallState
      value: 2
      objectReference: {fileID: 0}
    - target: {fileID: 4298175197752168088, guid: 32f536aa76f0ded4483ea1df092802cb,
        type: 3}
      propertyPath: m_Delegates.Array.data[0].callback.m_PersistentCalls.m_Calls.Array.data[1].m_Target
      value: 
      objectReference: {fileID: 0}
    - target: {fileID: 4298175197752168088, guid: 32f536aa76f0ded4483ea1df092802cb,
        type: 3}
      propertyPath: m_Delegates.Array.data[0].callback.m_PersistentCalls.m_Calls.Array.data[1].m_MethodName
      value: OnHoverEnter
      objectReference: {fileID: 0}
    - target: {fileID: 4298175197752168088, guid: 32f536aa76f0ded4483ea1df092802cb,
        type: 3}
      propertyPath: m_Delegates.Array.data[0].callback.m_PersistentCalls.m_Calls.Array.data[1].m_Arguments.m_ObjectArgumentAssemblyTypeName
      value: UnityEngine.Object, UnityEngine
      objectReference: {fileID: 0}
    - target: {fileID: 95177208450893327, guid: 32f536aa76f0ded4483ea1df092802cb,
        type: 3}
      propertyPath: m_OnClick.m_PersistentCalls.m_Calls.Array.data[0].m_Target
      value: 
      objectReference: {fileID: 0}
    - target: {fileID: 95177208450893313, guid: 32f536aa76f0ded4483ea1df092802cb,
        type: 3}
      propertyPath: savedPos.x
      value: 269.63998
      objectReference: {fileID: 0}
    - target: {fileID: 95177208450893313, guid: 32f536aa76f0ded4483ea1df092802cb,
        type: 3}
      propertyPath: savedPos.y
      value: -207.68404
      objectReference: {fileID: 0}
    - target: {fileID: 4298175197752168070, guid: 32f536aa76f0ded4483ea1df092802cb,
        type: 3}
      propertyPath: m_Delegates.Array.data[0].callback.m_PersistentCalls.m_Calls.Array.size
      value: 2
      objectReference: {fileID: 0}
    - target: {fileID: 4298175197752168070, guid: 32f536aa76f0ded4483ea1df092802cb,
        type: 3}
      propertyPath: m_Delegates.Array.data[0].callback.m_PersistentCalls.m_Calls.Array.data[0].m_Target
      value: 
      objectReference: {fileID: 0}
    - target: {fileID: 4298175197752168070, guid: 32f536aa76f0ded4483ea1df092802cb,
        type: 3}
      propertyPath: m_Delegates.Array.data[0].callback.m_PersistentCalls.m_Calls.Array.data[1].m_Mode
      value: 1
      objectReference: {fileID: 0}
    - target: {fileID: 4298175197752168070, guid: 32f536aa76f0ded4483ea1df092802cb,
        type: 3}
      propertyPath: m_Delegates.Array.data[0].callback.m_PersistentCalls.m_Calls.Array.data[1].m_CallState
      value: 2
      objectReference: {fileID: 0}
    - target: {fileID: 4298175197752168070, guid: 32f536aa76f0ded4483ea1df092802cb,
        type: 3}
      propertyPath: m_Delegates.Array.data[0].callback.m_PersistentCalls.m_Calls.Array.data[1].m_Target
      value: 
      objectReference: {fileID: 0}
    - target: {fileID: 4298175197752168070, guid: 32f536aa76f0ded4483ea1df092802cb,
        type: 3}
      propertyPath: m_Delegates.Array.data[0].callback.m_PersistentCalls.m_Calls.Array.data[1].m_MethodName
      value: OnHoverEnter
      objectReference: {fileID: 0}
    - target: {fileID: 4298175197752168070, guid: 32f536aa76f0ded4483ea1df092802cb,
        type: 3}
      propertyPath: m_Delegates.Array.data[0].callback.m_PersistentCalls.m_Calls.Array.data[1].m_Arguments.m_ObjectArgumentAssemblyTypeName
      value: UnityEngine.Object, UnityEngine
      objectReference: {fileID: 0}
    - target: {fileID: 95177207632785260, guid: 32f536aa76f0ded4483ea1df092802cb,
        type: 3}
      propertyPath: savedPos.x
      value: 269.63998
      objectReference: {fileID: 0}
    - target: {fileID: 95177207632785260, guid: 32f536aa76f0ded4483ea1df092802cb,
        type: 3}
      propertyPath: savedPos.y
      value: -230.73404
      objectReference: {fileID: 0}
    - target: {fileID: 95177208812524904, guid: 32f536aa76f0ded4483ea1df092802cb,
        type: 3}
      propertyPath: savedPos.x
      value: -265.10245
      objectReference: {fileID: 0}
    - target: {fileID: 95177208812524904, guid: 32f536aa76f0ded4483ea1df092802cb,
        type: 3}
      propertyPath: savedPos.y
      value: -230.73355
      objectReference: {fileID: 0}
    - target: {fileID: 95177208947631082, guid: 32f536aa76f0ded4483ea1df092802cb,
        type: 3}
      propertyPath: savedPos.x
      value: -265.10245
      objectReference: {fileID: 0}
    - target: {fileID: 95177208947631082, guid: 32f536aa76f0ded4483ea1df092802cb,
        type: 3}
      propertyPath: savedPos.y
      value: -207.68404
      objectReference: {fileID: 0}
    - target: {fileID: 95177209389155049, guid: 32f536aa76f0ded4483ea1df092802cb,
        type: 3}
      propertyPath: savedPos.x
      value: 269.64
      objectReference: {fileID: 0}
    - target: {fileID: 95177209389155049, guid: 32f536aa76f0ded4483ea1df092802cb,
        type: 3}
      propertyPath: savedPos.y
      value: -207.68404
      objectReference: {fileID: 0}
    - target: {fileID: 6346650130983187912, guid: 32f536aa76f0ded4483ea1df092802cb,
        type: 3}
      propertyPath: savedRectSize.x
      value: 0
      objectReference: {fileID: 0}
    - target: {fileID: 6346650130983187912, guid: 32f536aa76f0ded4483ea1df092802cb,
        type: 3}
      propertyPath: savedRectSize.y
      value: 0
      objectReference: {fileID: 0}
    - target: {fileID: 6821908751041287436, guid: 32f536aa76f0ded4483ea1df092802cb,
        type: 3}
      propertyPath: savedTextUV0.x
      value: 0
      objectReference: {fileID: 0}
    - target: {fileID: 6821908751041287436, guid: 32f536aa76f0ded4483ea1df092802cb,
        type: 3}
      propertyPath: savedTextUV0.y
      value: 0.0078125
      objectReference: {fileID: 0}
    - target: {fileID: 95177209186925676, guid: 32f536aa76f0ded4483ea1df092802cb,
        type: 3}
      propertyPath: savedTextUV0.x
      value: 0.203125
      objectReference: {fileID: 0}
    - target: {fileID: 95177209186925676, guid: 32f536aa76f0ded4483ea1df092802cb,
        type: 3}
      propertyPath: savedTextUV0.y
      value: 0.1171875
      objectReference: {fileID: 0}
    - target: {fileID: 95177208362043412, guid: 32f536aa76f0ded4483ea1df092802cb,
        type: 3}
      propertyPath: savedTextUV0.x
      value: 0.08203125
      objectReference: {fileID: 0}
    - target: {fileID: 95177208362043412, guid: 32f536aa76f0ded4483ea1df092802cb,
        type: 3}
      propertyPath: savedTextUV0.y
      value: 0.31640625
      objectReference: {fileID: 0}
    m_RemovedComponents: []
  m_SourcePrefab: {fileID: 100100000, guid: 32f536aa76f0ded4483ea1df092802cb, type: 3}
--- !u!1 &3839022262991330424 stripped
GameObject:
  m_CorrespondingSourceObject: {fileID: 7915168569164000623, guid: 32f536aa76f0ded4483ea1df092802cb,
    type: 3}
  m_PrefabInstance: {fileID: 6385718931041120535}
  m_PrefabAsset: {fileID: 0}
--- !u!1 &3839022262490678631 stripped
GameObject:
  m_CorrespondingSourceObject: {fileID: 7915168568933856368, guid: 32f536aa76f0ded4483ea1df092802cb,
    type: 3}
  m_PrefabInstance: {fileID: 6385718931041120535}
  m_PrefabAsset: {fileID: 0}
--- !u!1 &3839022261298291033 stripped
GameObject:
  m_CorrespondingSourceObject: {fileID: 7915168570696339534, guid: 32f536aa76f0ded4483ea1df092802cb,
    type: 3}
  m_PrefabInstance: {fileID: 6385718931041120535}
  m_PrefabAsset: {fileID: 0}
