%YAML 1.1
%TAG !u! tag:unity3d.com,2011:
--- !u!114 &11400000
MonoBehaviour:
  m_ObjectHideFlags: 0
  m_CorrespondingSourceObject: {fileID: 0}
  m_PrefabInstance: {fileID: 0}
  m_PrefabAsset: {fileID: 0}
  m_GameObject: {fileID: 0}
  m_Enabled: 1
  m_EditorHideFlags: 0
  m_Script: {fileID: 11500000, guid: 39551ac23af3dec48ac5065c39d7416a, type: 3}
  m_Name: Day 16
  m_EditorClassIdentifier: 
  header: "Day 16 \u2013 Bhima kills Dushasana"
  trivia: "Bhima swung his mace and shattered Dushasana\u2019s chariot, ripped his
    right hand and killed him, tearing open his chest and drinking his blood and carrying
    some to smear on Draupadi\u2019s untied hair, thus fulfilling his vow made when
    Draupadi was humiliated."
