%YAML 1.1
%TAG !u! tag:unity3d.com,2011:
--- !u!114 &11400000
MonoBehaviour:
  m_ObjectHideFlags: 0
  m_CorrespondingSourceObject: {fileID: 0}
  m_PrefabInstance: {fileID: 0}
  m_PrefabAsset: {fileID: 0}
  m_GameObject: {fileID: 0}
  m_Enabled: 1
  m_EditorHideFlags: 0
  m_Script: {fileID: 11500000, guid: 39551ac23af3dec48ac5065c39d7416a, type: 3}
  m_Name: Day 18
  m_EditorClassIdentifier: 
  header: "Day 18 \u2013 Death of Duryodhana"
  trivia: Bhima and Duryodhana fought a mace battle, Bhima flouted the rules to strike
    Duryodhana beneath the waist in which he was mortally wounded. In great pain,
    Duryodhana is left to die by the Pandavas.
