%YAML 1.1
%TAG !u! tag:unity3d.com,2011:
--- !u!114 &11400000
MonoBehaviour:
  m_ObjectHideFlags: 0
  m_CorrespondingSourceObject: {fileID: 0}
  m_PrefabInstance: {fileID: 0}
  m_PrefabAsset: {fileID: 0}
  m_GameObject: {fileID: 0}
  m_Enabled: 1
  m_EditorHideFlags: 0
  m_Script: {fileID: 11500000, guid: 39551ac23af3dec48ac5065c39d7416a, type: 3}
  m_Name: Day 1
  m_EditorClassIdentifier: 
  header: "Day 1 \u2013 Pandavas suffered heavy losses"
  trivia: The horrendous war began with Bhishma leading all of the Kaurava armies,
    rushing with their raised flags against the Pandavas. With Bhima leading the Pandava
    army stood against them with cheering hearts.
