%YAML 1.1
%TAG !u! tag:unity3d.com,2011:
--- !u!114 &11400000
MonoBehaviour:
  m_ObjectHideFlags: 0
  m_CorrespondingSourceObject: {fileID: 0}
  m_PrefabInstance: {fileID: 0}
  m_PrefabAsset: {fileID: 0}
  m_GameObject: {fileID: 0}
  m_Enabled: 1
  m_EditorHideFlags: 0
  m_Script: {fileID: 11500000, guid: 39551ac23af3dec48ac5065c39d7416a, type: 3}
  m_Name: Did you know 1
  m_EditorClassIdentifier: 
  header: Did You Know !
  trivia: The Mahabharata, also called, The Kurukshetra War is a war described in
    the Hindu-epic, Mahabharata. The conflict arose between two groups of cousins,
    the Kauravas, and Pandavas, due to the succession to the throne of Hastinapura.
