%YAML 1.1
%TAG !u! tag:unity3d.com,2011:
--- !u!114 &11400000
MonoBehaviour:
  m_ObjectHideFlags: 0
  m_CorrespondingSourceObject: {fileID: 0}
  m_PrefabInstance: {fileID: 0}
  m_PrefabAsset: {fileID: 0}
  m_GameObject: {fileID: 0}
  m_Enabled: 1
  m_EditorHideFlags: 0
  m_Script: {fileID: 11500000, guid: 39551ac23af3dec48ac5065c39d7416a, type: 3}
  m_Name: Did you know 2
  m_EditorClassIdentifier: 
  header: Did You Know !
  trivia: 'Many ancient kingdoms participated as allies of the rival groups in of
    the battle occurred in Kurukshetra, whose modern-day location is the state of
    Haryana. '
