%YAML 1.1
%TAG !u! tag:unity3d.com,2011:
--- !u!114 &11400000
MonoBehaviour:
  m_ObjectHideFlags: 0
  m_CorrespondingSourceObject: {fileID: 0}
  m_PrefabInstance: {fileID: 0}
  m_PrefabAsset: {fileID: 0}
  m_GameObject: {fileID: 0}
  m_Enabled: 1
  m_EditorHideFlags: 0
  m_Script: {fileID: 11500000, guid: 39551ac23af3dec48ac5065c39d7416a, type: 3}
  m_Name: Narration
  m_EditorClassIdentifier: 
  header: The Narration of the War
  trivia: Mahabharata is structured in the form of a dialogue between the King Dhritarashtra
    (who was born blind) and Sanjaya (having divine vision), his advisor and chariot
    driver.
