# Blender v2.79 (sub 0) OBJ File: 'arrow1.blend'
# www.blender.org
mtllib arrow1.mtl
o Plane
v 0.175273 -0.170673 -1.643805
v 0.175273 -0.170673 -1.942689
v -0.158084 0.186734 -1.643805
v -0.158084 0.186734 -1.942689
v 0.109103 -0.099728 -1.793247
v -0.091913 0.115790 -1.793247
v -0.187926 -0.156767 -1.643805
v -0.187926 -0.156767 -1.942689
v 0.169485 0.176586 -1.643805
v 0.169485 0.176587 -1.942689
v -0.116981 -0.090597 -1.793247
v 0.098539 0.110417 -1.793247
v 0.070051 -0.034327 0.436510
v -0.003756 -0.013047 0.686458
v -0.077559 0.008231 0.436510
v -0.029313 -0.005679 0.319176
v -0.029313 -0.005679 0.336995
v 0.021805 -0.020417 0.336995
v 0.021805 -0.020417 0.319176
v 0.104881 -0.029682 0.434799
v 0.000153 0.000512 0.789465
v -0.000204 -0.000726 0.789465
v 0.104525 -0.030921 0.434799
v -0.104571 0.030705 0.434799
v -0.104928 0.029467 0.434799
v -0.054478 0.016263 0.312974
v -0.054835 0.015025 0.312974
v -0.054478 0.016263 0.306737
v -0.054835 0.015025 0.306737
v 0.054789 -0.015240 0.306736
v 0.054432 -0.016478 0.306736
v 0.054789 -0.015240 0.312974
v 0.054432 -0.016478 0.312974
v -0.070146 0.034230 0.436510
v 0.003661 0.012951 0.686458
v 0.077464 -0.008328 0.436510
v 0.029218 0.005582 0.319176
v 0.029218 0.005582 0.336995
v -0.021901 0.020320 0.336995
v -0.021901 0.020320 0.319176
v -0.104977 0.029586 0.434800
v -0.000248 -0.000609 0.789465
v 0.000109 0.000630 0.789465
v -0.104620 0.030824 0.434800
v 0.104476 -0.030802 0.434799
v 0.104833 -0.029563 0.434799
v 0.054383 -0.016359 0.312974
v 0.054740 -0.015121 0.312974
v 0.054383 -0.016359 0.306737
v 0.054740 -0.015121 0.306737
v -0.054884 0.015144 0.306737
v -0.054527 0.016382 0.306737
v -0.054884 0.015144 0.312974
v -0.054527 0.016382 0.312974
v -0.009837 0.010253 0.598617
v -0.010642 0.011089 0.587181
v -0.014751 0.004273 0.587181
v -0.013636 0.003951 0.598617
v -0.003396 0.013811 0.598616
v -0.003676 0.014937 0.587181
v 0.003961 0.013672 0.598616
v 0.004281 0.014787 0.587181
v 0.010263 0.009873 0.598616
v 0.011097 0.010678 0.587180
v 0.013821 0.003432 0.598615
v 0.014946 0.003711 0.587180
v 0.013682 -0.003925 0.598615
v 0.014795 -0.004246 0.587180
v 0.009883 -0.010227 0.598615
v 0.010687 -0.011062 0.587180
v 0.003442 -0.013784 0.598616
v 0.003720 -0.014910 0.587180
v -0.003915 -0.013645 0.598616
v -0.004237 -0.014760 0.587181
v -0.010217 -0.009847 0.598616
v -0.011053 -0.010651 0.587181
v -0.013775 -0.003406 0.598617
v -0.014901 -0.003684 0.587181
v -0.008447 0.008809 0.609273
v -0.011710 0.003396 0.609273
v -0.002914 0.011866 0.609272
v 0.003406 0.011746 0.609272
v 0.008820 0.008483 0.609272
v 0.011876 0.002950 0.609271
v 0.011757 -0.003370 0.609271
v 0.008493 -0.008783 0.609271
v 0.002960 -0.011839 0.609272
v -0.003359 -0.011720 0.609272
v -0.008773 -0.008457 0.609272
v -0.011829 -0.002924 0.609273
v -0.006631 0.006924 0.618423
v -0.009195 0.002671 0.618423
v -0.002284 0.009326 0.618423
v 0.002682 0.009232 0.618423
v 0.006935 0.006668 0.618422
v 0.009337 0.002321 0.618422
v 0.009243 -0.002645 0.618422
v 0.006679 -0.006898 0.618422
v 0.002331 -0.009300 0.618422
v -0.002634 -0.009206 0.618423
v -0.006887 -0.006642 0.618423
v -0.009289 -0.002295 0.618423
v -0.004540 0.004752 0.625445
v -0.006298 0.001836 0.625445
v -0.001558 0.006399 0.625444
v 0.001847 0.006335 0.625444
v 0.004764 0.004577 0.625444
v 0.006411 0.001596 0.625444
v 0.006346 -0.001810 0.625444
v 0.004588 -0.004727 0.625444
v 0.001607 -0.006373 0.625444
v -0.001799 -0.006309 0.625444
v -0.004715 -0.004551 0.625444
v -0.006362 -0.001570 0.625445
v -0.002292 0.002418 0.629858
v -0.003184 0.000938 0.629858
v -0.000779 0.003254 0.629858
v 0.000949 0.003221 0.629858
v 0.002430 0.002329 0.629858
v 0.003265 0.000816 0.629858
v 0.003233 -0.000912 0.629858
v 0.002340 -0.002392 0.629858
v 0.000827 -0.003228 0.629858
v -0.000901 -0.003195 0.629858
v -0.002381 -0.002303 0.629858
v -0.003217 -0.000790 0.629858
v 0.000024 0.000013 0.631364
v -0.022870 0.023775 0.239904
v -0.031683 0.009155 0.239904
v -0.007927 0.032029 0.239904
v 0.009141 0.031707 0.239903
v 0.023761 0.022893 0.239902
v 0.032015 0.007951 0.239901
v 0.031693 -0.009117 0.239901
v 0.022879 -0.023737 0.239901
v 0.007937 -0.031992 0.239902
v -0.009131 -0.031669 0.239903
v -0.023751 -0.022856 0.239904
v -0.032006 -0.007913 0.239904
v -0.022870 0.023775 0.239904
v -0.031683 0.009155 0.239904
v -0.007927 0.032029 0.239904
v 0.009141 0.031707 0.239903
v 0.023761 0.022893 0.239902
v 0.032015 0.007951 0.239901
v 0.031693 -0.009117 0.239901
v 0.022879 -0.023737 0.239901
v 0.007937 -0.031992 0.239902
v -0.009131 -0.031669 0.239903
v -0.023751 -0.022856 0.239904
v -0.032006 -0.007913 0.239904
v -0.022870 0.023775 -1.709176
v -0.031683 0.009155 -1.709175
v -0.007927 0.032029 -1.709176
v 0.009141 0.031707 -1.709177
v 0.023761 0.022893 -1.709178
v 0.032015 0.007951 -1.709179
v 0.031693 -0.009117 -1.709179
v 0.022879 -0.023737 -1.709179
v 0.007937 -0.031992 -1.709178
v -0.009131 -0.031669 -1.709177
v -0.023751 -0.022856 -1.709176
v -0.032006 -0.007913 -1.709176
v -0.016952 0.017629 -1.978693
v -0.023486 0.006791 -1.978693
v -0.005875 0.023749 -1.978694
v 0.006777 0.023509 -1.978694
v 0.017615 0.016976 -1.978695
v 0.023735 0.005899 -1.978696
v 0.023496 -0.006754 -1.978696
v 0.016962 -0.017592 -1.978696
v 0.005885 -0.023711 -1.978695
v -0.006768 -0.023472 -1.978694
v -0.017606 -0.016939 -1.978694
v -0.023725 -0.005861 -1.978693
v 0.000005 0.000019 -1.978695
v -0.171615 0.174114 -1.643805
v 0.161742 -0.183294 -1.643805
v 0.095572 -0.112349 -1.793247
v 0.161742 -0.183294 -1.942689
v -0.171615 0.174114 -1.942689
v -0.105444 0.103169 -1.793247
v 0.183309 0.161765 -1.643805
v -0.174102 -0.171589 -1.643805
v -0.103157 -0.105419 -1.793247
v -0.174102 -0.171589 -1.942689
v 0.183309 0.161765 -1.942689
v 0.112364 0.095595 -1.793247
vt 0.000000 0.000000
vt 0.000000 0.000000
vt 0.000000 0.000000
vt 0.000000 0.000000
vt 0.000000 0.000000
vt 0.000000 0.000000
vt 0.000000 0.000000
vt 0.000000 0.000000
vt 0.000000 0.000000
vt 0.000000 0.000000
vt 0.000000 0.000000
vt 0.000000 0.000000
vt 0.000000 0.000000
vt 0.000000 0.000000
vt 0.000000 0.000000
vt 0.000000 0.000000
vt 0.000000 0.000000
vt 0.000000 0.000000
vt 0.000000 0.000000
vt 0.000000 0.000000
vt 0.000000 0.000000
vt 0.000000 0.000000
vt 0.000000 0.000000
vt 0.000000 0.000000
vt 0.000000 0.000000
vt 1.000000 0.000000
vt 1.000000 1.000000
vt 0.000000 1.000000
vt 0.000000 0.000000
vt 1.000000 0.000000
vt 1.000000 1.000000
vt 0.000000 1.000000
vt 0.000000 0.000000
vt 1.000000 0.000000
vt 1.000000 1.000000
vt 0.000000 1.000000
vt 0.000000 0.000000
vt 1.000000 0.000000
vt 1.000000 1.000000
vt 0.000000 1.000000
vt 0.000000 0.000000
vt 1.000000 0.000000
vt 1.000000 1.000000
vt 0.000000 1.000000
vt 0.000000 0.000000
vt 1.000000 0.000000
vt 1.000000 1.000000
vt 0.000000 1.000000
vt 0.000000 0.000000
vt 1.000000 0.000000
vt 1.000000 1.000000
vt 0.000000 1.000000
vt 0.000000 0.000000
vt 1.000000 0.000000
vt 1.000000 1.000000
vt 0.000000 1.000000
vt 0.000000 0.000000
vt 1.000000 0.000000
vt 1.000000 1.000000
vt 0.000000 1.000000
vt 0.000000 0.000000
vt 1.000000 0.000000
vt 1.000000 1.000000
vt 0.000000 1.000000
vt 0.000000 0.000000
vt 1.000000 0.000000
vt 1.000000 1.000000
vt 0.000000 1.000000
vt 0.000000 0.000000
vt 1.000000 0.000000
vt 1.000000 1.000000
vt 0.000000 1.000000
vt 0.000000 0.000000
vt 1.000000 0.000000
vt 1.000000 1.000000
vt 0.000000 1.000000
vt 0.000000 0.000000
vt 1.000000 0.000000
vt 1.000000 1.000000
vt 0.000000 1.000000
vt 0.000000 0.000000
vt 1.000000 0.000000
vt 0.000000 0.000000
vt 1.000000 0.000000
vt 1.000000 0.000000
vt 0.000000 0.000000
vt 1.000000 0.000000
vt 1.000000 1.000000
vt 0.000000 1.000000
vt 0.000000 0.000000
vt 1.000000 0.000000
vt 1.000000 1.000000
vt 0.000000 1.000000
vt 0.000000 0.000000
vt 1.000000 0.000000
vt 1.000000 1.000000
vt 0.000000 1.000000
vt 0.000000 0.000000
vt 1.000000 0.000000
vt 1.000000 1.000000
vt 0.000000 1.000000
vt 0.000000 0.000000
vt 1.000000 0.000000
vt 1.000000 1.000000
vt 0.000000 1.000000
vt 0.000000 0.000000
vt 1.000000 0.000000
vt 1.000000 1.000000
vt 0.000000 1.000000
vt 0.000000 0.000000
vt 1.000000 0.000000
vt 1.000000 1.000000
vt 0.000000 1.000000
vt 0.000000 0.000000
vt 1.000000 0.000000
vt 1.000000 1.000000
vt 0.000000 1.000000
vt 0.000000 0.000000
vt 1.000000 0.000000
vt 1.000000 1.000000
vt 0.000000 1.000000
vt 0.000000 0.000000
vt 1.000000 0.000000
vt 1.000000 1.000000
vt 0.000000 1.000000
vt 0.000000 0.000000
vt 1.000000 0.000000
vt 1.000000 1.000000
vt 0.000000 1.000000
vt 0.000000 0.000000
vt 1.000000 0.000000
vt 1.000000 1.000000
vt 0.000000 1.000000
vt 0.000000 0.000000
vt 1.000000 0.000000
vt 1.000000 1.000000
vt 0.000000 1.000000
vt 0.000000 0.000000
vt 1.000000 0.000000
vt 1.000000 1.000000
vt 0.000000 1.000000
vt 0.000000 0.000000
vt 1.000000 0.000000
vt 0.000000 0.000000
vt 1.000000 0.000000
vt 1.000000 0.000000
vt 0.918300 0.741500
vt 0.933000 0.750000
vt 1.000000 0.500000
vt 0.983000 0.500000
vt 0.741500 0.918300
vt 0.750000 0.933000
vt 0.500000 0.983000
vt 0.500000 1.000000
vt 0.258500 0.918300
vt 0.250000 0.933000
vt 0.081700 0.741500
vt 0.067000 0.750000
vt 0.017000 0.500000
vt 0.000000 0.500000
vt 0.081700 0.258500
vt 0.067000 0.250000
vt 0.258500 0.081700
vt 0.250000 0.067000
vt 0.500000 0.017000
vt 0.500000 0.000000
vt 0.741500 0.081700
vt 0.750000 0.067000
vt 0.918300 0.258500
vt 0.933000 0.250000
vt 0.875000 0.716500
vt 0.933000 0.500000
vt 0.716500 0.875000
vt 0.500000 0.933000
vt 0.283500 0.875000
vt 0.125000 0.716500
vt 0.067000 0.500000
vt 0.125000 0.283500
vt 0.283500 0.125000
vt 0.500000 0.067000
vt 0.716500 0.125000
vt 0.875000 0.283500
vt 0.806200 0.676800
vt 0.853600 0.500000
vt 0.676800 0.806200
vt 0.500000 0.853600
vt 0.323200 0.806200
vt 0.193800 0.676800
vt 0.146400 0.500000
vt 0.193800 0.323200
vt 0.323200 0.193800
vt 0.500000 0.146400
vt 0.676800 0.193800
vt 0.806200 0.323200
vt 0.716500 0.625000
vt 0.750000 0.500000
vt 0.625000 0.716500
vt 0.500000 0.750000
vt 0.375000 0.716500
vt 0.283500 0.625000
vt 0.250000 0.500000
vt 0.283500 0.375000
vt 0.375000 0.283500
vt 0.500000 0.250000
vt 0.625000 0.283500
vt 0.716500 0.375000
vt 0.612100 0.564700
vt 0.629400 0.500000
vt 0.564700 0.612100
vt 0.500000 0.629400
vt 0.435300 0.612100
vt 0.387900 0.564700
vt 0.370600 0.500000
vt 0.387900 0.435300
vt 0.435300 0.387900
vt 0.500000 0.370600
vt 0.564700 0.387900
vt 0.612100 0.435300
vt 0.500000 0.500000
vt 0.000000 0.000000
vt 0.083300 0.000000
vt 0.083300 0.654600
vt 0.000000 0.654600
vt 0.166700 0.000000
vt 0.166700 0.654600
vt 0.250000 0.000000
vt 0.250000 0.654600
vt 0.333300 0.000000
vt 0.333300 0.654600
vt 0.416700 0.000000
vt 0.416700 0.654600
vt 0.500000 0.000000
vt 0.500000 0.654600
vt 0.583300 0.000000
vt 0.583300 0.654600
vt 0.666700 0.000000
vt 0.666700 0.654600
vt 0.750000 0.000000
vt 0.750000 0.654600
vt 0.833300 0.000000
vt 0.833300 0.654600
vt 0.916700 0.000000
vt 0.916700 0.654600
vt 1.000000 0.000000
vt 1.000000 0.654600
vt 0.416700 0.654600
vt 0.333300 0.654600
vt 0.916700 0.654600
vt 0.833300 0.654600
vt 0.250000 0.654600
vt 0.083300 0.654600
vt 0.000000 0.654600
vt 0.750000 0.654600
vt 0.666700 0.654600
vt 0.583300 0.654600
vt 0.500000 0.654600
vt 1.000000 0.654600
vt 0.166700 0.654600
vt 0.250000 0.654600
vt 0.166700 0.654600
vt 0.833300 0.654600
vt 0.750000 0.654600
vt 0.416700 0.654600
vt 0.333300 0.654600
vt 0.666700 0.654600
vt 0.916700 0.654600
vt 0.583300 0.654600
vt 0.500000 0.654600
vt 0.083300 0.654600
vt 0.000000 0.654600
vt 1.000000 0.654600
vt 0.666700 0.654600
vt 0.583300 0.654600
vt 0.500000 0.654600
vt 0.416700 0.654600
vt 0.166700 0.654600
vt 0.083300 0.654600
vt 0.000000 0.654600
vt 0.333300 0.654600
vt 0.250000 0.654600
vt 1.000000 0.654600
vt 0.916700 0.654600
vt 0.833300 0.654600
vt 0.750000 0.654600
vt 0.833300 0.654600
vt 0.583300 0.654600
vt 0.416700 0.654600
vt 0.083300 0.654600
vt 0.000000 0.654600
vt 0.250000 0.654600
vt 0.916700 0.654600
vt 0.500000 0.654600
vt 0.166700 0.654600
vt 0.750000 0.654600
vt 0.333300 0.654600
vt 0.666700 0.654600
vn 0.7313 0.6821 0.0000
vn 0.6821 -0.7313 0.0000
vn -0.7313 -0.6821 -0.0000
vn 0.5721 -0.6134 -0.5445
vn 0.0000 0.0000 -1.0000
vn 0.0000 0.0000 1.0000
vn -0.5721 0.6134 0.5445
vn -0.5721 0.6134 -0.5445
vn 0.5721 -0.6134 0.5445
vn -0.6821 0.7313 -0.0000
vn 0.6134 0.5721 -0.5445
vn 0.6134 0.5721 0.5445
vn -0.6134 -0.5721 -0.5445
vn -0.6134 -0.5721 0.5445
vn 0.9185 -0.2647 0.2938
vn -0.9185 0.2648 0.2937
vn -0.8834 0.2546 -0.3934
vn -0.9609 0.2770 0.0000
vn 0.9609 -0.2770 0.0000
vn 0.8834 -0.2546 -0.3934
vn 0.1033 -0.9880 0.1146
vn -0.6134 -0.7814 0.1146
vn -0.5997 -0.7853 -0.1535
vn 0.6300 0.7766 0.0000
vn -0.2551 -0.8847 -0.3902
vn -0.1198 0.9928 0.0000
vn 0.0896 -0.9841 -0.1535
vn -0.0509 -0.9986 -0.0121
vn -0.2753 -0.9549 0.1110
vn -0.4886 -0.8724 -0.0121
vn 0.5667 -0.3811 -0.7305
vn 0.3730 0.1053 -0.9218
vn -0.2596 0.2878 -0.9218
vn -0.6826 -0.0209 -0.7304
vn -0.9185 0.2648 0.2938
vn 0.9185 -0.2648 0.2937
vn 0.8834 -0.2547 -0.3934
vn -0.8834 0.2547 -0.3934
vn -0.1033 0.9880 0.1146
vn 0.6134 0.7814 0.1146
vn 0.5997 0.7853 -0.1535
vn -0.6300 -0.7766 -0.0000
vn 0.2551 0.8847 -0.3902
vn 0.1198 -0.9928 -0.0000
vn -0.0896 0.9841 -0.1535
vn 0.0508 0.9986 -0.0121
vn 0.2753 0.9549 0.1110
vn 0.4886 0.8724 -0.0121
vn -0.5667 0.3811 -0.7305
vn -0.3730 -0.1054 -0.9218
vn 0.2596 -0.2878 -0.9218
vn 0.6826 0.0209 -0.7305
vn -0.6866 0.7130 0.1420
vn -0.6916 0.7183 0.0755
vn -0.9581 0.2762 0.0755
vn -0.9511 0.2742 0.1421
vn -0.2380 0.9608 0.1420
vn -0.2398 0.9679 0.0755
vn 0.2742 0.9511 0.1420
vn 0.2762 0.9581 0.0755
vn 0.7130 0.6866 0.1420
vn 0.7183 0.6916 0.0754
vn 0.9608 0.2381 0.1419
vn 0.9679 0.2398 0.0754
vn 0.9511 -0.2742 0.1419
vn 0.9581 -0.2762 0.0754
vn 0.6866 -0.7130 0.1419
vn 0.6916 -0.7183 0.0754
vn 0.2381 -0.9608 0.1420
vn 0.2398 -0.9679 0.0754
vn -0.2742 -0.9511 0.1420
vn -0.2762 -0.9581 0.0755
vn -0.7130 -0.6866 0.1420
vn -0.7183 -0.6916 0.0755
vn -0.9608 -0.2381 0.1420
vn -0.9679 -0.2398 0.0755
vn -0.6753 0.7013 0.2285
vn -0.9354 0.2697 0.2285
vn -0.2341 0.9450 0.2285
vn 0.2697 0.9354 0.2284
vn 0.7013 0.6753 0.2284
vn 0.9450 0.2341 0.2284
vn 0.9355 -0.2697 0.2284
vn 0.6753 -0.7013 0.2284
vn 0.2342 -0.9450 0.2284
vn -0.2697 -0.9355 0.2284
vn -0.7013 -0.6753 0.2285
vn -0.9449 -0.2341 0.2285
vn -0.6542 0.6794 0.3322
vn -0.9063 0.2613 0.3322
vn -0.2268 0.9155 0.3322
vn 0.2613 0.9063 0.3321
vn 0.6794 0.6542 0.3321
vn 0.9155 0.2268 0.3321
vn 0.9063 -0.2613 0.3321
vn 0.6542 -0.6794 0.3321
vn 0.2269 -0.9155 0.3321
vn -0.2613 -0.9063 0.3321
vn -0.6794 -0.6542 0.3322
vn -0.9155 -0.2268 0.3322
vn -0.6052 0.6285 0.4885
vn -0.8384 0.2417 0.4885
vn -0.2098 0.8469 0.4885
vn 0.2417 0.8384 0.4884
vn 0.6286 0.6052 0.4884
vn 0.8470 0.2098 0.4884
vn 0.8384 -0.2417 0.4884
vn 0.6052 -0.6286 0.4884
vn 0.2099 -0.8470 0.4884
vn -0.2417 -0.8384 0.4884
vn -0.6285 -0.6052 0.4885
vn -0.8469 -0.2099 0.4885
vn -0.4531 0.4707 0.7570
vn -0.6277 0.1810 0.7570
vn -0.1571 0.6342 0.7570
vn 0.1810 0.6278 0.7570
vn 0.4707 0.4532 0.7570
vn 0.6342 0.1571 0.7570
vn 0.6279 -0.1810 0.7570
vn 0.4532 -0.4706 0.7570
vn 0.1571 -0.6342 0.7570
vn -0.1810 -0.6278 0.7570
vn -0.4706 -0.4532 0.7570
vn -0.6342 -0.1572 0.7570
vn -0.4675 0.4855 0.7387
vn -0.6476 0.1867 0.7387
vn -0.1621 0.6542 0.7387
vn 0.1867 0.6476 0.7387
vn 0.4855 0.4675 0.7387
vn 0.6543 0.1621 0.7387
vn 0.6477 -0.1867 0.7387
vn 0.4675 -0.4855 0.7387
vn 0.1621 -0.6543 0.7387
vn -0.1867 -0.6476 0.7387
vn -0.4855 -0.4675 0.7387
vn -0.6542 -0.1621 0.7387
vn 0.6743 0.1671 0.7192
vn 0.5004 0.4819 0.7192
vn -0.6743 -0.1671 0.7192
vn -0.5004 -0.4819 0.7192
vn 0.1924 0.6675 0.7192
vn -0.4819 0.5004 0.7192
vn -0.6675 0.1924 0.7192
vn -0.1924 -0.6675 0.7192
vn 0.1671 -0.6743 0.7192
vn 0.4819 -0.5004 0.7192
vn 0.6675 -0.1924 0.7192
vn -0.1671 0.6743 0.7192
vn 0.2770 0.9607 -0.0158
vn -0.2405 0.9705 -0.0158
vn -0.7202 -0.6935 -0.0158
vn -0.2770 -0.9607 -0.0158
vn 0.9705 0.2405 -0.0158
vn 0.7202 0.6935 -0.0158
vn 0.2405 -0.9705 -0.0158
vn -0.9705 -0.2405 -0.0158
vn 0.6935 -0.7202 -0.0158
vn 0.9607 -0.2770 -0.0158
vn -0.6935 0.7202 -0.0158
vn -0.9607 0.2770 -0.0158
vn 0.1796 -0.7249 -0.6649
vn 0.5180 -0.5380 -0.6650
vn 0.7176 -0.2069 -0.6650
vn 0.7249 0.1796 -0.6650
vn -0.1797 0.7249 -0.6649
vn -0.5181 0.5380 -0.6649
vn -0.7177 0.2069 -0.6649
vn 0.5380 0.5181 -0.6649
vn 0.2069 0.7176 -0.6649
vn -0.7250 -0.1796 -0.6649
vn -0.5380 -0.5180 -0.6649
vn -0.2069 -0.7176 -0.6649
usemtl Material.001
s off
f 5/1/1 2/2/1 4/3/1 6/4/1
f 1/5/1 5/1/1 6/4/1 3/6/1
f 11/7/2 8/8/2 10/9/2 12/10/2
f 7/11/2 11/7/2 12/10/2 9/12/2
f 179/13/3 182/14/3 181/15/3 180/16/3
f 178/17/3 177/18/3 182/14/3 179/13/3
f 1/5/4 178/17/4 179/13/4 5/1/4
f 2/2/5 180/16/5 181/15/5 4/3/5
f 3/6/6 177/18/6 178/17/6 1/5/6
f 4/3/7 181/15/7 182/14/7 6/4/7
f 6/4/8 182/14/8 177/18/8 3/6/8
f 5/1/9 179/13/9 180/16/9 2/2/9
f 185/19/10 188/20/10 187/21/10 186/22/10
f 184/23/10 183/24/10 188/20/10 185/19/10
f 11/7/11 185/19/11 186/22/11 8/8/11
f 7/11/12 184/23/12 185/19/12 11/7/12
f 8/8/6 186/22/6 187/21/6 10/9/6
f 9/12/5 183/24/5 184/23/5 7/11/5
f 10/9/13 187/21/13 188/20/13 12/10/13
f 12/10/14 188/20/14 183/24/14 9/12/14
usemtl Material.003
f 20/25/15 21/26/15 22/27/15 23/28/15
f 21/29/16 24/30/16 25/31/16 22/32/16
f 24/33/17 26/34/17 27/35/17 25/36/17
f 26/37/18 28/38/18 29/39/18 27/40/18
f 28/41/5 30/42/5 31/43/5 29/44/5
f 30/45/19 32/46/19 33/47/19 31/48/19
f 32/49/20 20/50/20 23/51/20 33/52/20
f 23/53/21 22/54/21 14/55/21 13/56/21
f 22/57/22 25/58/22 15/59/22 14/60/22
f 25/61/23 27/62/23 16/63/23 15/64/23
f 27/65/24 29/66/24 17/67/24 16/68/24
f 29/69/25 31/70/25 18/71/25 17/72/25
f 31/73/26 33/74/26 19/75/26 18/76/26
f 33/77/27 23/78/27 13/79/27 19/80/27
s 1
f 13/81/28 14/82/29 15/59/30 16/68/31
f 16/83/31 17/84/32 18/71/33 19/80/34
f 13/81/28 16/85/31 19/75/34
usemtl 01___Default
s off
f 41/86/35 42/87/35 43/88/35 44/89/35
f 42/90/36 45/91/36 46/92/36 43/93/36
f 45/94/37 47/95/37 48/96/37 46/97/37
f 47/98/19 49/99/19 50/100/19 48/101/19
f 49/102/5 51/103/5 52/104/5 50/105/5
f 51/106/18 53/107/18 54/108/18 52/109/18
f 53/110/38 41/111/38 44/112/38 54/113/38
f 44/114/39 43/115/39 35/116/39 34/117/39
f 43/118/40 46/119/40 36/120/40 35/121/40
f 46/122/41 48/123/41 37/124/41 36/125/41
f 48/126/42 50/127/42 38/128/42 37/129/42
f 50/130/43 52/131/43 39/132/43 38/133/43
f 52/134/44 54/135/44 40/136/44 39/137/44
f 54/138/45 44/139/45 34/140/45 40/141/45
s 1
f 34/142/46 35/143/47 36/120/48 37/129/49
f 37/144/49 38/145/50 39/132/51 40/141/52
f 34/142/46 37/146/49 40/136/52
usemtl Material.002
f 55/147/53 56/148/54 57/149/55 58/150/56
f 59/151/57 60/152/58 56/148/54 55/147/53
f 61/153/59 62/154/60 60/152/58 59/151/57
f 63/155/61 64/156/62 62/154/60 61/153/59
f 65/157/63 66/158/64 64/156/62 63/155/61
f 67/159/65 68/160/66 66/158/64 65/157/63
f 69/161/67 70/162/68 68/160/66 67/159/65
f 71/163/69 72/164/70 70/162/68 69/161/67
f 73/165/71 74/166/72 72/164/70 71/163/69
f 75/167/73 76/168/74 74/166/72 73/165/71
f 77/169/75 78/170/76 76/168/74 75/167/73
f 58/150/56 57/149/55 78/170/76 77/169/75
f 79/171/77 55/147/53 58/150/56 80/172/78
f 81/173/79 59/151/57 55/147/53 79/171/77
f 82/174/80 61/153/59 59/151/57 81/173/79
f 83/175/81 63/155/61 61/153/59 82/174/80
f 84/176/82 65/157/63 63/155/61 83/175/81
f 85/177/83 67/159/65 65/157/63 84/176/82
f 86/178/84 69/161/67 67/159/65 85/177/83
f 87/179/85 71/163/69 69/161/67 86/178/84
f 88/180/86 73/165/71 71/163/69 87/179/85
f 89/181/87 75/167/73 73/165/71 88/180/86
f 90/182/88 77/169/75 75/167/73 89/181/87
f 80/172/78 58/150/56 77/169/75 90/182/88
f 91/183/89 79/171/77 80/172/78 92/184/90
f 93/185/91 81/173/79 79/171/77 91/183/89
f 94/186/92 82/174/80 81/173/79 93/185/91
f 95/187/93 83/175/81 82/174/80 94/186/92
f 96/188/94 84/176/82 83/175/81 95/187/93
f 97/189/95 85/177/83 84/176/82 96/188/94
f 98/190/96 86/178/84 85/177/83 97/189/95
f 99/191/97 87/179/85 86/178/84 98/190/96
f 100/192/98 88/180/86 87/179/85 99/191/97
f 101/193/99 89/181/87 88/180/86 100/192/98
f 102/194/100 90/182/88 89/181/87 101/193/99
f 92/184/90 80/172/78 90/182/88 102/194/100
f 103/195/101 91/183/89 92/184/90 104/196/102
f 105/197/103 93/185/91 91/183/89 103/195/101
f 106/198/104 94/186/92 93/185/91 105/197/103
f 107/199/105 95/187/93 94/186/92 106/198/104
f 108/200/106 96/188/94 95/187/93 107/199/105
f 109/201/107 97/189/95 96/188/94 108/200/106
f 110/202/108 98/190/96 97/189/95 109/201/107
f 111/203/109 99/191/97 98/190/96 110/202/108
f 112/204/110 100/192/98 99/191/97 111/203/109
f 113/205/111 101/193/99 100/192/98 112/204/110
f 114/206/112 102/194/100 101/193/99 113/205/111
f 104/196/102 92/184/90 102/194/100 114/206/112
f 115/207/113 103/195/101 104/196/102 116/208/114
f 117/209/115 105/197/103 103/195/101 115/207/113
f 118/210/116 106/198/104 105/197/103 117/209/115
f 119/211/117 107/199/105 106/198/104 118/210/116
f 120/212/118 108/200/106 107/199/105 119/211/117
f 121/213/119 109/201/107 108/200/106 120/212/118
f 122/214/120 110/202/108 109/201/107 121/213/119
f 123/215/121 111/203/109 110/202/108 122/214/120
f 124/216/122 112/204/110 111/203/109 123/215/121
f 125/217/123 113/205/111 112/204/110 124/216/122
f 126/218/124 114/206/112 113/205/111 125/217/123
f 116/208/114 104/196/102 114/206/112 126/218/124
f 116/208/114 127/219/6 115/207/113
f 115/207/113 127/219/6 117/209/115
f 117/209/115 127/219/6 118/210/116
f 118/210/116 127/219/6 119/211/117
f 119/211/117 127/219/6 120/212/118
f 120/212/118 127/219/6 121/213/119
f 121/213/119 127/219/6 122/214/120
f 122/214/120 127/219/6 123/215/121
f 123/215/121 127/219/6 124/216/122
f 124/216/122 127/219/6 125/217/123
f 125/217/123 127/219/6 126/218/124
f 126/218/124 127/219/6 116/208/114
f 57/220/55 56/221/54 128/222/125
f 128/222/125 129/223/126 57/220/55
f 56/221/54 60/224/58 130/225/127
f 130/225/127 128/222/125 56/221/54
f 60/224/58 62/226/60 131/227/128
f 131/227/128 130/225/127 60/224/58
f 62/226/60 64/228/62 132/229/129
f 132/229/129 131/227/128 62/226/60
f 64/228/62 66/230/64 133/231/130
f 133/231/130 132/229/129 64/228/62
f 66/230/64 68/232/66 134/233/131
f 134/233/131 133/231/130 66/230/64
f 68/232/66 70/234/68 135/235/132
f 135/235/132 134/233/131 68/232/66
f 70/234/68 72/236/70 136/237/133
f 136/237/133 135/235/132 70/234/68
f 72/236/70 74/238/72 137/239/134
f 137/239/134 136/237/133 72/236/70
f 74/238/72 76/240/74 138/241/135
f 138/241/135 137/239/134 74/238/72
f 76/240/74 78/242/76 139/243/136
f 139/243/136 138/241/135 76/240/74
f 78/242/76 57/244/55 129/245/126
f 129/245/126 139/243/136 78/242/76
f 132/229/129 133/231/130 145/246/137 144/247/138
f 138/241/135 139/243/136 151/248/139 150/249/140
f 131/227/128 132/229/129 144/247/138 143/250/141
f 129/223/126 128/222/125 140/251/142 141/252/143
f 137/239/134 138/241/135 150/249/140 149/253/144
f 135/235/132 136/237/133 148/254/145 147/255/146
f 134/233/131 135/235/132 147/255/146 146/256/147
f 139/243/136 129/245/126 141/257/143 151/248/139
f 128/222/125 130/225/127 142/258/148 140/251/142
f 133/231/130 134/233/131 146/256/147 145/246/137
f 136/237/133 137/239/134 149/253/144 148/254/145
f 130/225/127 131/227/128 143/250/141 142/258/148
f 142/258/148 143/250/141 155/259/149 154/260/150
f 149/253/144 150/249/140 162/261/151 161/262/152
f 144/247/138 145/246/137 157/263/153 156/264/154
f 148/254/145 149/253/144 161/262/152 160/265/155
f 150/249/140 151/248/139 163/266/156 162/261/151
f 147/255/146 148/254/145 160/265/155 159/267/157
f 145/246/137 146/256/147 158/268/158 157/263/153
f 140/251/142 142/258/148 154/260/150 152/269/159
f 141/252/143 140/251/142 152/269/159 153/270/160
f 143/250/141 144/247/138 156/264/154 155/259/149
f 151/248/139 141/257/143 153/271/160 163/266/156
f 146/256/147 147/255/146 159/267/157 158/268/158
f 159/267/157 160/265/155 172/272/161 171/273/162
f 157/263/153 158/268/158 170/274/163 169/275/164
f 152/269/159 154/260/150 166/276/165 164/277/166
f 153/270/160 152/269/159 164/277/166 165/278/167
f 155/259/149 156/264/154 168/279/168 167/280/169
f 163/266/156 153/271/160 165/281/167 175/282/170
f 158/268/158 159/267/157 171/273/162 170/274/163
f 154/260/150 155/259/149 167/280/169 166/276/165
f 161/262/152 162/261/151 174/283/171 173/284/172
f 156/264/154 157/263/153 169/275/164 168/279/168
f 160/265/155 161/262/152 173/284/172 172/272/161
f 162/261/151 163/266/156 175/282/170 174/283/171
f 174/283/171 175/282/170 176/285/5
f 171/273/162 172/272/161 176/286/5
f 169/275/164 170/274/163 176/287/5
f 164/277/166 166/276/165 176/288/5
f 165/278/167 164/277/166 176/289/5
f 167/280/169 168/279/168 176/290/5
f 175/282/170 165/281/167 176/291/5
f 170/274/163 171/273/162 176/292/5
f 166/276/165 167/280/169 176/293/5
f 173/284/172 174/283/171 176/294/5
f 168/279/168 169/275/164 176/295/5
f 172/272/161 173/284/172 176/296/5
