%YAML 1.1
%TAG !u! tag:unity3d.com,2011:
--- !u!114 &11400000
MonoBehaviour:
  m_ObjectHideFlags: 0
  m_CorrespondingSourceObject: {fileID: 0}
  m_PrefabInstance: {fileID: 0}
  m_PrefabAsset: {fileID: 0}
  m_GameObject: {fileID: 0}
  m_Enabled: 1
  m_EditorHideFlags: 0
  m_Script: {fileID: 11500000, guid: fd67351e2d343e84d995390509225ada, type: 3}
  m_Name: Game Play training 1
  m_EditorClassIdentifier: 
  name: Gameplay (Training Arena)
  tutorialText: Press and hold touchpad to activate the shield. When the shield is
    active, no one can touch you. Currently available in training arena only.
  sprite: {fileID: 21300000, guid: 3d473edd12726414ab0617985463f415, type: 3}
  videoClip: {fileID: 0}
  videoClipDefaultTexture: {fileID: 2800000, guid: b832c257bff96ef4289a1ed419b53347,
    type: 3}
