%YAML 1.1
%TAG !u! tag:unity3d.com,2011:
--- !u!114 &11400000
MonoBehaviour:
  m_ObjectHideFlags: 0
  m_CorrespondingSourceObject: {fileID: 0}
  m_PrefabInstance: {fileID: 0}
  m_PrefabAsset: {fileID: 0}
  m_GameObject: {fileID: 0}
  m_Enabled: 1
  m_EditorHideFlags: 0
  m_Script: {fileID: 11500000, guid: fd67351e2d343e84d995390509225ada, type: 3}
  m_Name: Mace 2
  m_EditorClassIdentifier: 
  name: Mace
  tutorialText: Press trigger on the controller to throw spell. You enter into slow
    motion until you release the trigger.
  sprite: {fileID: 21300000, guid: bb939ceae56638d4ab45034173b22ea0, type: 3}
  videoClip: {fileID: 32900000, guid: 53ae4157be6b488448d162d9220d8d4b, type: 3}
