%YAML 1.1
%TAG !u! tag:unity3d.com,2011:
--- !u!114 &208080380
MonoBehaviour:
  m_ObjectHideFlags: 0
  m_CorrespondingSourceObject: {fileID: 0}
  m_PrefabInstance: {fileID: 0}
  m_PrefabAsset: {fileID: 0}
  m_GameObject: {fileID: 3681467843780686576}
  m_Enabled: 1
  m_EditorHideFlags: 0
  m_Script: {fileID: 11500000, guid: c8e32d1736382904598d6784b948265c, type: 3}
  m_Name: 
  m_EditorClassIdentifier: 
  ParentPool: {fileID: 0}
  DisableTime: 3
--- !u!1001 &2505628546950895702
PrefabInstance:
  m_ObjectHideFlags: 0
  serializedVersion: 2
  m_Modification:
    m_TransformParent: {fileID: 0}
    m_Modifications:
    - target: {fileID: 1284357798641281702, guid: 3c8b553aaf5e22a459267ece525473a7,
        type: 3}
      propertyPath: m_Name
      value: vfx_Projectile_SpinYellow_Mobile Variant Variant
      objectReference: {fileID: 0}
    - target: {fileID: 1281147179158082236, guid: 3c8b553aaf5e22a459267ece525473a7,
        type: 3}
      propertyPath: m_LocalPosition.x
      value: -23.35
      objectReference: {fileID: 0}
    - target: {fileID: 1281147179158082236, guid: 3c8b553aaf5e22a459267ece525473a7,
        type: 3}
      propertyPath: m_LocalPosition.y
      value: -11.56
      objectReference: {fileID: 0}
    - target: {fileID: 1281147179158082236, guid: 3c8b553aaf5e22a459267ece525473a7,
        type: 3}
      propertyPath: m_LocalPosition.z
      value: -29.489597
      objectReference: {fileID: 0}
    - target: {fileID: 1281147179158082236, guid: 3c8b553aaf5e22a459267ece525473a7,
        type: 3}
      propertyPath: m_LocalRotation.x
      value: -0
      objectReference: {fileID: 0}
    - target: {fileID: 1281147179158082236, guid: 3c8b553aaf5e22a459267ece525473a7,
        type: 3}
      propertyPath: m_LocalRotation.y
      value: -0
      objectReference: {fileID: 0}
    - target: {fileID: 1281147179158082236, guid: 3c8b553aaf5e22a459267ece525473a7,
        type: 3}
      propertyPath: m_LocalRotation.z
      value: -0
      objectReference: {fileID: 0}
    - target: {fileID: 1281147179158082236, guid: 3c8b553aaf5e22a459267ece525473a7,
        type: 3}
      propertyPath: m_LocalRotation.w
      value: 1
      objectReference: {fileID: 0}
    - target: {fileID: 1281147179158082236, guid: 3c8b553aaf5e22a459267ece525473a7,
        type: 3}
      propertyPath: m_RootOrder
      value: 0
      objectReference: {fileID: 0}
    - target: {fileID: 1281147179158082236, guid: 3c8b553aaf5e22a459267ece525473a7,
        type: 3}
      propertyPath: m_LocalEulerAnglesHint.x
      value: 0
      objectReference: {fileID: 0}
    - target: {fileID: 1281147179158082236, guid: 3c8b553aaf5e22a459267ece525473a7,
        type: 3}
      propertyPath: m_LocalEulerAnglesHint.y
      value: 0
      objectReference: {fileID: 0}
    - target: {fileID: 1281147179158082236, guid: 3c8b553aaf5e22a459267ece525473a7,
        type: 3}
      propertyPath: m_LocalEulerAnglesHint.z
      value: 0
      objectReference: {fileID: 0}
    - target: {fileID: 1375739797788075612, guid: 3c8b553aaf5e22a459267ece525473a7,
        type: 3}
      propertyPath: ColorModule.gradient.maxGradient.key0.a
      value: 1
      objectReference: {fileID: 0}
    - target: {fileID: 1375739797788075612, guid: 3c8b553aaf5e22a459267ece525473a7,
        type: 3}
      propertyPath: ColorModule.gradient.maxGradient.atime1
      value: 65535
      objectReference: {fileID: 0}
    - target: {fileID: 1375739797788075612, guid: 3c8b553aaf5e22a459267ece525473a7,
        type: 3}
      propertyPath: ColorModule.gradient.maxGradient.m_NumAlphaKeys
      value: 2
      objectReference: {fileID: 0}
    m_RemovedComponents: []
  m_SourcePrefab: {fileID: 100100000, guid: 3c8b553aaf5e22a459267ece525473a7, type: 3}
--- !u!1 &3681467843780686576 stripped
GameObject:
  m_CorrespondingSourceObject: {fileID: 1284357798641281702, guid: 3c8b553aaf5e22a459267ece525473a7,
    type: 3}
  m_PrefabInstance: {fileID: 2505628546950895702}
  m_PrefabAsset: {fileID: 0}
