%YAML 1.1
%TAG !u! tag:unity3d.com,2011:
--- !u!114 &1908649122
MonoBehaviour:
  m_ObjectHideFlags: 0
  m_CorrespondingSourceObject: {fileID: 0}
  m_PrefabInstance: {fileID: 0}
  m_PrefabAsset: {fileID: 0}
  m_GameObject: {fileID: 2508063831893224660}
  m_Enabled: 1
  m_EditorHideFlags: 0
  m_Script: {fileID: 11500000, guid: c8e32d1736382904598d6784b948265c, type: 3}
  m_Name: 
  m_EditorClassIdentifier: 
  ParentPool: {fileID: 0}
  DisableTime: 3
--- !u!1001 &4749997838018791411
PrefabInstance:
  m_ObjectHideFlags: 0
  serializedVersion: 2
  m_Modification:
    m_TransformParent: {fileID: 0}
    m_Modifications:
    - target: {fileID: 7144132986978167591, guid: 5ad5ad8a678fbe44db6b4d95878dbe91,
        type: 3}
      propertyPath: m_Name
      value: vfx_Projectile_Fireball_Mobile Variant
      objectReference: {fileID: 0}
    - target: {fileID: 7146547450621829495, guid: 5ad5ad8a678fbe44db6b4d95878dbe91,
        type: 3}
      propertyPath: m_LocalPosition.x
      value: -23.35
      objectReference: {fileID: 0}
    - target: {fileID: 7146547450621829495, guid: 5ad5ad8a678fbe44db6b4d95878dbe91,
        type: 3}
      propertyPath: m_LocalPosition.y
      value: -11.56
      objectReference: {fileID: 0}
    - target: {fileID: 7146547450621829495, guid: 5ad5ad8a678fbe44db6b4d95878dbe91,
        type: 3}
      propertyPath: m_LocalPosition.z
      value: -29.489597
      objectReference: {fileID: 0}
    - target: {fileID: 7146547450621829495, guid: 5ad5ad8a678fbe44db6b4d95878dbe91,
        type: 3}
      propertyPath: m_LocalRotation.x
      value: -0
      objectReference: {fileID: 0}
    - target: {fileID: 7146547450621829495, guid: 5ad5ad8a678fbe44db6b4d95878dbe91,
        type: 3}
      propertyPath: m_LocalRotation.y
      value: -0
      objectReference: {fileID: 0}
    - target: {fileID: 7146547450621829495, guid: 5ad5ad8a678fbe44db6b4d95878dbe91,
        type: 3}
      propertyPath: m_LocalRotation.z
      value: -0
      objectReference: {fileID: 0}
    - target: {fileID: 7146547450621829495, guid: 5ad5ad8a678fbe44db6b4d95878dbe91,
        type: 3}
      propertyPath: m_LocalRotation.w
      value: 1
      objectReference: {fileID: 0}
    - target: {fileID: 7146547450621829495, guid: 5ad5ad8a678fbe44db6b4d95878dbe91,
        type: 3}
      propertyPath: m_RootOrder
      value: 0
      objectReference: {fileID: 0}
    - target: {fileID: 7146547450621829495, guid: 5ad5ad8a678fbe44db6b4d95878dbe91,
        type: 3}
      propertyPath: m_LocalEulerAnglesHint.x
      value: 0
      objectReference: {fileID: 0}
    - target: {fileID: 7146547450621829495, guid: 5ad5ad8a678fbe44db6b4d95878dbe91,
        type: 3}
      propertyPath: m_LocalEulerAnglesHint.y
      value: 0
      objectReference: {fileID: 0}
    - target: {fileID: 7146547450621829495, guid: 5ad5ad8a678fbe44db6b4d95878dbe91,
        type: 3}
      propertyPath: m_LocalEulerAnglesHint.z
      value: 0
      objectReference: {fileID: 0}
    m_RemovedComponents: []
  m_SourcePrefab: {fileID: 100100000, guid: 5ad5ad8a678fbe44db6b4d95878dbe91, type: 3}
--- !u!1 &2508063831893224660 stripped
GameObject:
  m_CorrespondingSourceObject: {fileID: 7144132986978167591, guid: 5ad5ad8a678fbe44db6b4d95878dbe91,
    type: 3}
  m_PrefabInstance: {fileID: 4749997838018791411}
  m_PrefabAsset: {fileID: 0}
