%YAML 1.1
%TAG !u! tag:unity3d.com,2011:
--- !u!114 &907739476
MonoBehaviour:
  m_ObjectHideFlags: 0
  m_CorrespondingSourceObject: {fileID: 0}
  m_PrefabInstance: {fileID: 0}
  m_PrefabAsset: {fileID: 0}
  m_GameObject: {fileID: 5042794240469027771}
  m_Enabled: 1
  m_EditorHideFlags: 0
  m_Script: {fileID: 11500000, guid: c8e32d1736382904598d6784b948265c, type: 3}
  m_Name: 
  m_EditorClassIdentifier: 
  ParentPool: {fileID: 0}
  DisableTime: 3
--- !u!1001 &4938564984120629988
PrefabInstance:
  m_ObjectHideFlags: 0
  serializedVersion: 2
  m_Modification:
    m_TransformParent: {fileID: 0}
    m_Modifications:
    - target: {fileID: 104378885767663967, guid: 6604c56ef59a08041b9cefd14e1ade6f,
        type: 3}
      propertyPath: m_Name
      value: vfx_Projectile_ArrowPoisoned_Mobile Variant
      objectReference: {fileID: 0}
    - target: {fileID: 100946436156455437, guid: 6604c56ef59a08041b9cefd14e1ade6f,
        type: 3}
      propertyPath: m_LocalPosition.x
      value: 5.65
      objectReference: {fileID: 0}
    - target: {fileID: 100946436156455437, guid: 6604c56ef59a08041b9cefd14e1ade6f,
        type: 3}
      propertyPath: m_LocalPosition.y
      value: 2
      objectReference: {fileID: 0}
    - target: {fileID: 100946436156455437, guid: 6604c56ef59a08041b9cefd14e1ade6f,
        type: 3}
      propertyPath: m_LocalPosition.z
      value: -0.05
      objectReference: {fileID: 0}
    - target: {fileID: 100946436156455437, guid: 6604c56ef59a08041b9cefd14e1ade6f,
        type: 3}
      propertyPath: m_LocalRotation.x
      value: 0
      objectReference: {fileID: 0}
    - target: {fileID: 100946436156455437, guid: 6604c56ef59a08041b9cefd14e1ade6f,
        type: 3}
      propertyPath: m_LocalRotation.y
      value: 0
      objectReference: {fileID: 0}
    - target: {fileID: 100946436156455437, guid: 6604c56ef59a08041b9cefd14e1ade6f,
        type: 3}
      propertyPath: m_LocalRotation.z
      value: 0
      objectReference: {fileID: 0}
    - target: {fileID: 100946436156455437, guid: 6604c56ef59a08041b9cefd14e1ade6f,
        type: 3}
      propertyPath: m_LocalRotation.w
      value: 1
      objectReference: {fileID: 0}
    - target: {fileID: 100946436156455437, guid: 6604c56ef59a08041b9cefd14e1ade6f,
        type: 3}
      propertyPath: m_RootOrder
      value: 0
      objectReference: {fileID: 0}
    - target: {fileID: 100946436156455437, guid: 6604c56ef59a08041b9cefd14e1ade6f,
        type: 3}
      propertyPath: m_LocalEulerAnglesHint.x
      value: 0
      objectReference: {fileID: 0}
    - target: {fileID: 100946436156455437, guid: 6604c56ef59a08041b9cefd14e1ade6f,
        type: 3}
      propertyPath: m_LocalEulerAnglesHint.y
      value: 0
      objectReference: {fileID: 0}
    - target: {fileID: 100946436156455437, guid: 6604c56ef59a08041b9cefd14e1ade6f,
        type: 3}
      propertyPath: m_LocalEulerAnglesHint.z
      value: 0
      objectReference: {fileID: 0}
    m_RemovedComponents: []
  m_SourcePrefab: {fileID: 100100000, guid: 6604c56ef59a08041b9cefd14e1ade6f, type: 3}
--- !u!1 &5042794240469027771 stripped
GameObject:
  m_CorrespondingSourceObject: {fileID: 104378885767663967, guid: 6604c56ef59a08041b9cefd14e1ade6f,
    type: 3}
  m_PrefabInstance: {fileID: 4938564984120629988}
  m_PrefabAsset: {fileID: 0}
